0:25:5.421 7.4 96.5 1.18639218 1 9.5 1.18040014 111.011610432035
0:25:5.517 7.4 96.5 1.18638432 1 9.5 1.18040014 110.884863542344
0:25:5.613 7.4 96.5 1.18611062 1 9.5 1.18040014 110.667876796382
0:25:5.642 7.4 96.5 1.18604290 1 9.5 1.18040014 110.893240472605
0:25:5.725 7.4 96.5 1.18622864 1 9.5 1.18040014 110.549897268116
0:25:5.821 7.4 96.5 1.18621122 1 9.5 1.18040014 111.101779107694
0:25:5.917 7.4 96.5 1.18582106 1 9.0 1.18040014 110.941080903659
0:25:6.13 7.4 96.5 1.18593276 1 9.0 1.18040014 110.550729892366
0:25:6.108 7.4 96.5 1.18601144 1 9.0 1.18040014 111.217211627332
0:25:6.204 7.4 96.5 1.18579114 1 9.0 1.18040014 110.94746386894
0:25:6.300 7.4 96.5 1.18596578 1 9.0 1.18040014 111.031741817674
0:25:6.338 7.4 96.5 1.18584776 1 9.0 1.18040014 110.754593127042
0:25:6.413 7.4 96.5 1.18593276 1 9.0 1.18040014 111.215834432899
0:25:6.508 7.4 96.5 1.18565106 1 9.5 1.18040014 110.317983636117
0:25:6.604 7.4 96.5 1.18567622 1 9.5 1.18040014 110.502163666791
0:25:9.753 7.4 96.6 1.18628370 1 9.0 1.1802963 110.795710010726
0:25:9.848 7.4 96.6 1.18633092 1 9.0 1.1802963 111.362619842172
0:25:9.944 7.4 96.6 1.18621600 1 9.0 1.1802963 110.749503236538
0:25:10.40 7.4 96.6 1.18620812 1 9.0 1.1802963 110.717715931673
0:25:10.136 7.4 96.6 1.18602086 1 9.0 1.1802963 110.832789455269
0:25:10.190 7.4 96.6 1.18612314 1 9.0 1.1802963 110.839565190127
0:25:10.248 7.4 96.6 1.18598628 1 9.0 1.1802963 110.617004949152
0:25:10.344 7.4 96.6 1.18587458 1 9.0 1.1802963 111.464733186457
0:25:10.440 7.4 96.6 1.18588244 1 9.0 1.1802963 110.48814277167
0:25:10.536 7.4 96.6 1.18583202 1 9.0 1.1802963 111.175336101913
0:25:10.935 7.4 96.6 1.18574238 1 9.0 1.1802963 110.681745559926
0:25:11.31 7.4 96.6 1.18575656 1 9.0 1.1802963 110.956716316042
0:25:11.127 7.4 96.6 1.18573606 1 9.0 1.1802963 111.166887854091
0:25:12.996 7.4 96.6 1.18631672 1 9.0 1.18032456 110.704904097268
0:25:13.92 7.4 96.6 1.18626952 1 9.0 1.18032456 110.933464837248
0:25:13.189 7.4 96.6 1.18592644 1 9.0 1.18032456 110.918866399206
0:25:13.300 7.4 96.6 1.18608070 1 9.0 1.18032456 111.097635719025
0:25:13.396 7.4 96.6 1.18583202 1 9.0 1.18032456 110.609112622988
0:25:13.492 7.4 96.6 1.18588554 1 9.0 1.18032456 110.812416134392
0:25:13.588 7.4 96.6 1.18582570 1 9.0 1.18032456 111.42836577979
0:25:13.684 7.4 96.6 1.18595326 1 9.0 1.18032456 111.024364904299
0:25:13.780 7.4 96.6 1.18569040 1 9.0 1.18032456 110.709638681137
0:25:13.876 7.4 96.6 1.18589496 1 9.5 1.18032456 110.75727714152
0:25:13.987 7.4 96.6 1.18576908 1 9.5 1.18032456 110.677712588869
0:25:14.83 7.4 96.6 1.18566524 1 9.5 1.18032456 110.688575847827
0:25:14.179 7.4 96.6 1.18567156 1 9.5 1.18032456 110.722275693761
0:25:14.275 7.4 96.6 1.18565262 1 9.5 1.18032456 110.640526894237
0:25:14.371 7.4 96.6 1.18538356 1 9.5 1.18032456 110.862380599397
0:25:14.467 7.4 96.6 1.18558180 1 9.5 1.18032456 110.831818803908
0:25:14.563 7.4 96.6 1.18563222 1 9.0 1.18032456 110.789109671024
0:25:14.962 7.4 96.6 1.18545282 1 9.0 1.18032456 111.033948608622
0:25:15.58 7.4 96.6 1.18547798 1 9.0 1.18032456 110.854886657316
0:25:15.154 7.4 96.6 1.18567944 1 9.0 1.18032456 110.330520086938
0:25:15.234 7.4 96.6 1.18533004 1 9.0 1.18032456 110.714122167071
0:25:15.278 7.4 96.6 1.18552518 1 9.0 1.18032456 110.997819306586
0:25:17.136 7.4 96.6 1.18638754 1 9.0 1.18040014 110.839513287005
0:25:17.232 7.4 96.6 1.18612946 1 9.0 1.18040014 110.637295144582
0:25:17.327 7.4 96.6 1.18618930 1 9.0 1.18040014 111.564930796471
0:25:17.423 7.4 96.6 1.18622864 1 9.0 1.18040014 110.67518187715
0:25:17.519 7.4 96.6 1.18622864 1 9.0 1.18040014 110.848571710266
0:25:17.615 7.4 96.6 1.18615150 1 9.0 1.18040014 110.63870992452
0:25:17.717 7.4 96.6 1.18596900 1 9.0 1.18040014 111.203559410367
0:25:17.823 7.4 96.6 1.18612158 1 9.0 1.18040014 110.754882114127
0:25:17.919 7.4 96.6 1.18575966 1 9.0 1.18040014 111.095610013287
0:25:18.14 7.4 96.6 1.18589652 1 9.0 1.18040014 110.56989559086
0:25:18.110 7.4 96.6 1.18591226 1 9.0 1.18040014 111.761415150008
0:25:18.206 7.4 96.6 1.18592178 1 9.0 1.18040014 110.30570508912
0:25:18.302 7.4 96.6 1.18570458 1 9.0 1.18040014 111.034331897029
0:25:18.398 7.4 96.6 1.18579590 1 9.0 1.18040014 110.534138181679
0:25:18.510 7.4 96.6 1.18582892 1 9.0 1.18040014 110.615487650858
0:25:20.476 7.4 96.5 1.18643630 1 9.0 1.18018294 110.189594237709
0:25:20.571 7.4 96.5 1.18610740 1 9.0 1.18018294 110.896758596448
0:25:20.972 7.4 96.5 1.18605554 1 9.0 1.18018294 111.260247121557
0:25:21.67 7.4 96.5 1.18614674 1 9.0 1.18018294 110.345344304149
0:25:21.163 7.4 96.5 1.18576598 1 9.0 1.18018294 111.129762229085
0:25:21.259 7.4 96.5 1.18613100 1 9.0 1.18018294 110.340262286868
0:25:21.355 7.4 96.5 1.18611062 1 9.0 1.18018294 110.924631266891
0:25:21.451 7.4 96.5 1.18584312 1 9.0 1.18018294 110.560175609736
0:25:21.546 7.4 96.5 1.18587614 1 9.0 1.18018294 110.754389681166
0:25:21.611 7.4 96.5 1.18587768 1 9.0 1.18018294 110.609624711891
0:25:21.678 7.4 96.5 1.18594694 1 9.0 1.18018294 110.643530460556
0:25:21.754 7.4 96.5 1.18575490 1 9.0 1.18018294 110.966387930719
0:25:21.850 7.4 96.5 1.18578016 1 9.0 1.18018294 111.073865460906
0:25:24.503 7.4 96.5 1.18642210 1 9.0 1.18028056 110.450387055077
0:25:24.599 7.4 96.5 1.18636548 1 9.0 1.18028056 111.110409476123
0:25:24.998 7.4 96.5 1.18614828 1 9.0 1.18028056 111.437465316872
0:25:25.116 7.4 96.5 1.18610274 1 9.0 1.18028056 110.575173569353
0:25:25.198 7.4 96.5 1.18611682 1 9.0 1.18028056 110.852394661782
0:25:25.286 7.4 96.5 1.18613732 1 9.0 1.18028056 110.981028708
0:25:25.382 7.4 96.5 1.18589342 1 9.0 1.18028056 111.406409364518
0:25:25.460 7.4 96.5 1.18595636 1 9.0 1.18028056 110.512699496396
0:25:25.542 7.4 96.5 1.18573916 1 9.0 1.18028056 110.589518586656
0:25:25.625 7.4 96.5 1.18596112 1 9.0 1.18028056 110.459622242014
0:25:25.714 7.4 96.5 1.18578958 1 9.0 1.18028056 110.397453427814
0:25:25.797 7.4 96.5 1.18599414 1 9.0 1.18028056 111.120835961971
0:25:25.880 7.4 96.5 1.18561172 1 9.0 1.18028056 111.107419961692
0:25:25.973 7.4 96.5 1.18567002 1 9.0 1.18028056 110.992570754077
0:25:26.85 7.4 96.5 1.18578172 1 9.0 1.18028056 111.025190411534
0:25:28.30 7.4 96.4 1.18629778 1 9.0 1.18022228 110.71231143645
0:25:28.122 7.4 96.4 1.18626320 1 9.0 1.18022228 111.444095747608
0:25:28.212 7.4 96.4 1.18625056 1 9.0 1.18022228 110.650108692884
0:25:28.307 7.4 96.4 1.18613886 1 9.0 1.18022228 110.565881053786
0:25:28.399 7.4 96.4 1.18599724 1 9.0 1.18022228 110.882422716467
0:25:28.489 7.4 96.4 1.18611682 1 9.0 1.18022228 110.712176460661
0:25:28.581 7.4 96.4 1.18603194 1 9.0 1.18022228 111.043828066387
0:25:28.675 7.4 96.4 1.18573452 1 9.0 1.18022228 110.966171987958
0:25:28.768 7.4 96.4 1.18592488 1 9.0 1.18022228 110.687935192858
0:25:29.25 7.4 96.4 1.18595636 1 9.0 1.18022228 111.264950452177
0:25:29.127 7.4 96.4 1.18581318 1 9.0 1.18022228 110.715901512039
0:25:29.233 7.4 96.4 1.18583358 1 9.0 1.18022228 110.901514691874
0:25:29.334 7.4 96.4 1.18585252 1 9.0 1.18022228 110.588958987886
0:25:29.431 7.4 96.4 1.18596578 1 9.0 1.18022228 111.093056611377
0:25:29.526 7.4 96.4 1.18578482 1 9.0 1.18022228 110.652466091288
0:25:31.638 7.5 96.5 1.18631672 1 9.0 1.18028056 111.049727666039
0:25:31.748 7.5 96.5 1.18616570 1 9.0 1.18028056 110.556114012408
0:25:31.853 7.5 96.5 1.18609642 1 9.0 1.18028056 110.69538257054
0:25:31.956 7.5 96.5 1.18612790 1 9.0 1.18028056 110.235975665579
0:25:32.66 7.5 96.5 1.18620336 1 9.0 1.18028056 110.821151706882
0:25:32.172 7.5 96.5 1.18608224 1 9.0 1.18028056 110.993943494522
0:25:32.280 7.5 96.5 1.18586350 1 9.0 1.18028056 110.484625278186
0:25:32.386 7.5 96.5 1.18585408 1 9.0 1.18028056 110.864165718815
0:25:32.491 7.5 96.5 1.18589186 1 9.0 1.18028056 110.805151974971
0:25:32.605 7.5 96.5 1.18588554 1 9.0 1.18028056 110.597230538933
0:25:32.711 7.5 96.5 1.18595480 1 9.0 1.18028056 110.928166328532
0:25:32.816 7.5 96.5 1.18580996 1 9.0 1.18028056 110.975730204182
0:25:32.925 7.5 96.5 1.18565738 1 9.0 1.18028056 110.266170595343
0:25:33.32 7.5 96.5 1.18583680 1 9.0 1.18028056 111.07288887913
0:25:33.141 7.5 96.5 1.18573130 1 9.0 1.18028056 110.926057246714
0:25:33.255 7.5 96.5 1.18593908 1 9.0 1.18028056 111.101358004812
0:25:33.364 7.5 96.5 1.18554568 1 9.0 1.18028056 110.4772399898
0:25:33.474 7.5 96.5 1.18550790 1 9.0 1.18028056 110.77060674953
0:25:33.585 7.5 96.5 1.18566524 1 9.0 1.18028056 111.24099711088
0:25:33.694 7.5 96.5 1.18565738 1 9.0 1.18028056 110.925957430194
0:25:33.803 7.5 96.5 1.18579746 1 9.0 1.18028056 111.069184173221
0:25:33.914 7.5 96.5 1.18576276 1 9.0 1.18028056 110.741179908919
0:25:34.36 7.5 96.5 1.18572510 1 9.5 1.18028056 110.486928027437
0:25:36.134 7.4 96.4 1.18626952 1 9.0 1.18021596 110.747345355962
0:25:36.256 7.4 96.4 1.18595636 1 9.0 1.18021596 110.743817905143
0:25:36.379 7.4 96.4 1.18612004 1 9.0 1.18021596 110.765545090139
0:25:36.500 7.4 96.4 1.18581318 1 9.0 1.18021596 110.91993074191
0:25:36.620 7.4 96.4 1.18583680 1 9.0 1.18021596 110.986562551506
0:25:36.741 7.4 96.4 1.18591548 1 9.0 1.18021596 111.18285477067
0:25:36.866 7.4 96.4 1.18589186 1 9.0 1.18021596 110.907924042027
0:25:36.988 7.4 96.4 1.18573452 1 9.0 1.18021596 111.062365436181
0:25:37.112 7.4 96.4 1.18574702 1 9.0 1.18021596 110.960778312953
0:25:37.237 7.4 96.4 1.18576122 1 9.0 1.18021596 110.868920515077
0:25:37.362 7.4 96.4 1.18571090 1 9.0 1.18021596 110.900848559444
0:25:37.485 7.4 96.4 1.18562114 1 9.0 1.18021596 110.969270710025
0:25:37.612 7.4 96.4 1.18579268 1 9.0 1.18021596 110.399689932184
0:25:37.739 7.4 96.4 1.18542612 1 9.0 1.18021596 110.928529332583
0:25:40.91 7.5 96.4 1.18642532 1 9.0 1.18011844 110.729839832299
0:25:40.227 7.5 96.4 1.18634498 1 9.0 1.18011844 110.471470578821
0:25:40.363 7.5 96.4 1.18627262 1 9.0 1.18011844 111.341330419272
0:25:40.505 7.5 96.4 1.18626010 1 9.0 1.18011844 110.900673733427
0:25:40.642 7.5 96.4 1.18628204 1 9.0 1.18011844 110.281482510436
0:25:40.780 7.5 96.4 1.18603814 1 9.0 1.18011844 110.322516112778
0:25:40.919 7.5 96.4 1.18595946 1 9.0 1.18011844 111.202227504478
0:25:41.57 7.5 96.4 1.18589652 1 9.0 1.18011844 110.742280223105
0:25:41.194 7.5 96.4 1.18604136 1 9.0 1.18011844 110.497503169736
0:25:41.337 7.5 96.4 1.18574548 1 9.0 1.18011844 110.450191014359
0:25:41.475 7.5 96.4 1.18581164 1 9.0 1.18011844 111.391148470619
0:25:41.613 7.5 96.4 1.18577384 1 9.0 1.18011844 110.939966571857
0:25:41.756 7.5 96.4 1.18592644 1 9.0 1.18011844 110.713043786563
0:25:41.895 7.5 96.4 1.18567944 1 9.0 1.18011844 110.752119415871
0:25:42.45 7.5 96.4 1.18580056 1 9.0 1.18011844 110.553152106629
0:25:46.96 7.4 96.4 1.18655586 1 9.0 1.18008388 111.012840677962
0:25:46.253 7.4 96.4 1.18645204 1 9.0 1.18008388 111.136466206722
0:25:46.408 7.4 96.4 1.18631982 1 9.0 1.18008388 110.679809400351
0:25:46.575 7.4 96.4 1.18630100 1 9.0 1.18008388 111.166642771801
0:25:46.734 7.4 96.4 1.18627894 1 9.0 1.18008388 111.105464132562
0:25:46.896 7.4 96.4 1.18608534 1 9.0 1.18008388 110.687680082899
0:25:47.61 7.4 96.4 1.18606960 1 9.0 1.18008388 111.155593363612
0:25:47.221 7.4 96.4 1.18608534 1 9.0 1.18008388 111.028521633952
0:25:47.394 7.4 96.4 1.18589652 1 9.0 1.18008388 110.512632067339
0:25:47.556 7.4 96.4 1.18596578 1 9.0 1.18008388 110.308925574982
0:25:47.719 7.4 96.4 1.18599414 1 9.0 1.18008388 110.939383035422
0:25:47.883 7.4 96.4 1.18586194 1 9.0 1.18008388 110.467801822656
0:25:48.56 7.4 96.4 1.18581318 1 9.0 1.18008388 110.855762690842
0:25:48.219 7.4 96.4 1.18583680 1 9.0 1.18008388 110.826637029455
0:25:48.384 7.4 96.4 1.18581784 1 9.0 1.18008388 110.335850413545
0:25:51.691 7.4 96.4 1.18658102 1 9.0 1.18004286 110.551004361042
0:25:51.879 7.4 96.4 1.18626166 1 9.0 1.18004286 110.897295633928
0:25:52.68 7.4 96.4 1.18631982 1 9.0 1.18004286 110.564914827123
0:25:52.247 7.4 96.4 1.18620502 1 9.0 1.18004286 110.625899871108
0:25:52.427 7.4 96.4 1.18605388 1 9.0 1.18004286 111.040533858828
0:25:52.615 7.4 96.4 1.18598306 1 9.0 1.18004286 110.585397838382
0:25:52.801 7.4 96.4 1.18594850 1 9.0 1.18004286 110.18409819554
0:25:52.987 7.4 96.4 1.18613256 1 9.0 1.18004286 110.748675121581
0:25:53.172 7.4 96.4 1.18603348 1 9.0 1.18004286 110.558111331147
0:25:53.359 7.4 96.4 1.18586672 1 9.0 1.18004286 110.945321786349
0:25:53.553 7.4 96.4 1.18596578 1 9.0 1.18004286 111.331425722636
0:25:53.739 7.4 96.4 1.18570936 1 9.0 1.18004286 110.645119214525
0:25:53.929 7.4 96.4 1.18574870 1 9.0 1.18004286 110.815267924739
0:25:54.129 7.4 96.4 1.18584930 1 9.0 1.18004286 110.750218973371
0:25:54.321 7.4 96.4 1.18571400 1 9.0 1.18004286 110.509411640905
0:25:57.543 7.4 96.4 1.18616402 1 9.0 1.18009484 110.931983890713
0:25:57.753 7.4 96.4 1.18610894 1 9.0 1.18009484 110.664266669877
0:25:57.964 7.4 96.4 1.18596422 1 9.0 1.18009484 111.080783261388
0:25:58.180 7.4 96.4 1.18583834 1 9.0 1.18009484 110.941828012592
0:25:58.399 7.4 96.4 1.18576598 1 9.0 1.18009484 111.117974371243
0:25:58.613 7.4 96.4 1.18566834 1 9.0 1.18009484 111.074065442779
0:25:58.831 7.4 96.4 1.18568730 1 9.0 1.18009484 111.353835107036
0:25:59.54 7.4 96.4 1.18576444 1 9.0 1.18009484 110.681343962361
0:25:59.272 7.4 96.4 1.18557560 1 9.0 1.18009484 110.633459315416
0:25:59.491 7.4 96.4 1.18579746 1 9.0 1.18009484 110.659162865617
0:25:59.708 7.4 96.4 1.18554092 1 9.0 1.18009484 110.911530450015
0:25:59.930 7.4 96.4 1.18570304 1 9.0 1.18009484 110.550779647634
0:26:0.175 7.4 96.4 1.18556774 1 9.0 1.18009484 110.939351994549
0:26:0.395 7.4 96.4 1.18561960 1 9.0 1.18009484 111.273875438832
0:26:0.657 7.4 96.4 1.18547010 1 9.0 1.18009484 110.933473820568
0:26:0.893 7.4 96.4 1.18556296 1 9.0 1.18009484 110.759481698585
0:26:1.121 7.4 96.4 1.18544496 1 9.0 1.18009484 110.862126529203
0:26:1.347 7.4 96.4 1.18551266 1 9.0 1.18009484 110.885697081328
0:26:1.570 7.4 96.4 1.18526090 1 9.0 1.18009484 110.784335008494
0:26:1.807 7.4 96.4 1.18536938 1 9.0 1.18009484 110.577536886794
0:26:2.41 7.4 96.4 1.18543864 1 9.0 1.18009484 111.169927668955
0:26:2.267 7.4 96.4 1.18546224 1 9.0 1.18009484 110.85485976489
0:26:2.500 7.4 96.4 1.18564164 1 9.0 1.18009484 110.938058980561
0:26:2.725 7.4 96.4 1.18540252 1 9.0 1.18009484 111.204005452826
0:26:7.101 7.4 96.5 1.18619084 1 9.0 1.18005394 110.651048815192
0:26:7.355 7.4 96.5 1.18610108 1 9.0 1.18005394 110.98756687134
0:26:7.610 7.4 96.5 1.18602406 1 9.0 1.18005394 110.539619310898
0:26:7.864 7.4 96.5 1.18580532 1 9.0 1.18005394 111.067793005236
0:26:8.122 7.4 96.5 1.18579268 1 9.0 1.18005394 111.097258628105
0:26:8.386 7.4 96.5 1.18585408 1 9.0 1.18005394 110.579846518332
0:26:8.652 7.4 96.5 1.18571090 1 9.0 1.18005394 111.176667271535
0:26:8.912 7.4 96.5 1.18559134 1 9.0 1.18005394 110.049869966264
0:26:9.178 7.4 96.5 1.18555510 1 9.0 1.18005394 111.415545370102
0:26:9.435 7.4 96.5 1.18585718 1 9.0 1.18005394 110.590909017564
0:26:9.697 7.4 96.5 1.18554878 1 9.0 1.18005394 110.845455863848
0:26:9.967 7.4 96.5 1.18550002 1 9.0 1.18005394 110.205982615702
0:26:10.246 7.4 96.5 1.18550790 1 9.0 1.18005394 110.61881330929
0:26:10.515 7.4 96.5 1.18559598 1 9.0 1.18005394 111.123146355714
0:26:10.788 7.4 96.5 1.18529702 1 9.0 1.18005394 110.822431171287
0:26:16.805 7.4 96.4 1.18606650 1 9.0 1.1801169 111.049012487639
0:26:17.153 7.4 96.4 1.18599414 1 9.0 1.1801169 111.108322181483
0:26:17.503 7.4 96.4 1.18585098 1 9.0 1.1801169 110.415744645645
0:26:17.864 7.4 96.4 1.18609488 1 9.0 1.1801169 110.802266019257
0:26:18.204 7.4 96.4 1.18573452 1 9.0 1.1801169 110.328860537136
0:26:18.523 7.4 96.4 1.18562592 1 9.0 1.1801169 110.731210816525
0:26:18.845 7.4 96.4 1.18572188 1 9.0 1.1801169 110.726751666904
0:26:19.177 7.4 96.4 1.18577694 1 9.0 1.1801169 110.684699483455
0:26:19.502 7.4 96.4 1.18556774 1 9.0 1.1801169 110.946288232158
0:26:19.822 7.4 96.4 1.18576276 1 9.0 1.1801169 110.753636202809
0:26:20.160 7.4 96.4 1.18571722 1 9.0 1.1801169 111.108167261904
0:26:20.489 7.4 96.4 1.18540716 1 9.0 1.1801169 110.659242359473
0:26:20.819 7.4 96.4 1.18542922 1 9.0 1.1801169 110.842975110315
0:26:21.158 7.4 96.4 1.18557084 1 9.0 1.1801169 111.078745215225
0:26:21.492 7.4 96.4 1.18536150 1 9.0 1.1801169 110.839095187972
0:26:21.828 7.4 96.4 1.18556928 1 9.0 1.1801169 110.724908342205
0:26:28.37 7.4 96.5 1.18621754 1 9.0 1.18006026 110.494810525124
0:26:28.381 7.4 96.5 1.18636394 1 9.0 1.18006026 110.87344740761
0:26:28.714 7.4 96.5 1.18635762 1 9.0 1.18006026 111.167108401164
0:26:29.57 7.4 96.5 1.18610894 1 9.0 1.18006026 111.04833912638
0:26:29.410 7.4 96.5 1.18600834 1 9.0 1.18006026 111.059490198438
0:26:29.762 7.4 96.5 1.18577540 1 9.0 1.18006026 110.755475204463
0:26:30.125 7.4 96.5 1.18592488 1 9.0 1.18006026 111.044727812263
0:26:30.472 7.4 96.5 1.18564796 1 9.0 1.18006026 110.909133007914
0:26:30.820 7.4 96.5 1.18587924 1 9.0 1.18006026 110.304640673816
0:26:31.175 7.4 96.5 1.18584620 1 9.0 1.18006026 110.680743561008
0:26:31.520 7.4 96.5 1.18584466 1 9.0 1.18006026 110.392911265759
0:26:31.875 7.4 96.5 1.18578016 1 9.0 1.18006026 110.931244884485
0:26:32.236 7.4 96.5 1.18566216 1 9.0 1.18006026 111.140535584579
0:26:32.583 7.4 96.5 1.18572188 1 9.0 1.18006026 110.673174325032
0:26:32.939 7.4 96.5 1.18573760 1 9.0 1.18006026 111.139400690334
0:26:40.375 7.4 96.4 1.18613886 1 9.0 1.1799469 111.161457745928
0:26:40.730 7.4 96.4 1.18607128 1 9.0 1.1799469 111.213526917728
0:26:41.88 7.4 96.4 1.18594694 1 9.0 1.1799469 110.02388042086
0:26:41.450 7.4 96.4 1.18595480 1 9.0 1.1799469 110.748281246254
0:26:41.800 7.4 96.4 1.18585252 1 9.0 1.1799469 110.956409835055
0:26:42.161 7.4 96.4 1.18583990 1 9.0 1.1799469 110.452205556753
0:26:42.522 7.4 96.4 1.18575024 1 9.0 1.1799469 110.521512449553
0:26:42.939 7.4 96.4 1.18575180 1 9.0 1.1799469 110.950399280343
0:26:43.327 7.4 96.4 1.18581318 1 9.0 1.1799469 110.650453252943
0:26:43.685 7.4 96.4 1.18552362 1 9.0 1.1799469 111.346989324378
0:26:44.47 7.4 96.4 1.18551886 1 9.0 1.1799469 110.987675258163
0:26:44.415 7.4 96.4 1.18560230 1 9.0 1.1799469 110.809268282286
0:26:44.775 7.4 96.4 1.18550158 1 9.0 1.1799469 110.528569948971
0:26:45.143 7.4 96.4 1.18545282 1 9.0 1.1799469 110.655163257548
0:26:45.496 7.4 96.4 1.18545914 1 9.0 1.1799469 111.379046364048
0:26:53.816 7.4 96.4 1.18646622 1 9.0 1.17995476 111.030626666124
0:26:54.352 7.4 96.4 1.18614208 1 9.0 1.17995476 110.631469766305
0:26:55.139 7.4 96.4 1.18622076 1 9.0 1.17995476 110.693126288567
0:26:55.704 7.4 96.4 1.18598628 1 9.0 1.17995476 110.970213780003
0:26:56.190 7.4 96.4 1.18603026 1 9.0 1.17995476 110.83613520959
0:26:56.564 7.4 96.4 1.18596422 1 9.0 1.17995476 111.149458157701
0:26:56.952 7.4 96.4 1.18597520 1 9.0 1.17995476 110.43651029242
0:26:57.344 7.4 96.4 1.18596900 1 9.0 1.17995476 111.06158861221
0:26:57.718 7.4 96.4 1.18585562 1 9.0 1.17995476 110.553232459877
0:26:58.123 7.4 96.4 1.18572342 1 9.0 1.17995476 110.940548067903
0:26:58.504 7.4 96.4 1.18572342 1 9.0 1.17995476 110.754922928095
0:26:58.889 7.4 96.4 1.18576908 1 9.0 1.17995476 111.010444313972
0:26:59.261 7.4 96.4 1.18576754 1 9.0 1.17995476 110.808201862348
0:26:59.628 7.4 96.4 1.18589496 1 9.0 1.17995476 110.872639828518
0:27:0.0 7.4 96.4 1.18582892 1 9.0 1.17995476 110.648059316868
0:27:0.371 7.4 96.4 1.18559598 1 9.0 1.17995476 110.398587023943
0:27:7.432 7.4 96.4 1.18613732 1 9.0 1.17995476 111.117238147825
0:27:7.836 7.4 96.4 1.18620026 1 9.0 1.17995476 110.508849182941
0:27:8.257 7.4 96.4 1.18611526 1 9.0 1.17995476 110.393415686471
0:27:8.632 7.4 96.4 1.18607592 1 9.0 1.17995476 111.148063578468
0:27:9.12 7.4 96.4 1.18591548 1 9.0 1.17995476 110.793921310589
0:27:9.385 7.4 96.4 1.18597520 1 9.0 1.17995476 111.084664005987
0:27:9.767 7.4 96.4 1.18569040 1 9.0 1.17995476 110.97552385453
0:27:10.214 7.4 96.4 1.18575490 1 9.0 1.17995476 110.812592808501
0:27:10.589 7.4 96.4 1.18551100 1 9.0 1.17995476 110.774929886047
0:27:10.962 7.4 96.4 1.18568730 1 9.0 1.17995476 111.30136179927
0:27:11.353 7.4 96.4 1.18566048 1 9.0 1.17995476 110.916783813765
0:27:11.748 7.4 96.4 1.18551422 1 9.0 1.17995476 110.794976512608
0:27:12.192 7.4 96.4 1.18563222 1 9.0 1.17995476 110.70683116062
0:27:12.610 7.4 96.4 1.18548274 1 9.0 1.17995476 110.970130981974
0:27:12.985 7.4 96.4 1.18561804 1 9.0 1.17995476 111.091586122337
0:27:20.564 7.4 96.5 1.18606960 1 9.0 1.18007756 110.862075717557
0:27:20.961 7.4 96.5 1.18593120 1 9.0 1.18007756 111.191080834742
0:27:21.348 7.4 96.5 1.18603980 1 9.0 1.18007756 110.792582408392
0:27:21.745 7.4 96.5 1.18588864 1 9.0 1.18007756 111.225329332057
0:27:22.139 7.4 96.5 1.18580996 1 9.0 1.18007756 110.634692890733
0:27:22.537 7.4 96.5 1.18564642 1 9.0 1.18007756 111.266343639542
0:27:22.991 7.4 96.5 1.18580056 1 9.0 1.18007756 110.999064206045
0:27:23.386 7.4 96.5 1.18568886 1 9.0 1.18007756 110.936223609011
0:27:23.785 7.4 96.5 1.18563854 1 9.0 1.18007756 110.397939891748
0:27:24.181 7.4 96.5 1.18571556 1 9.0 1.18007756 110.808242605561
0:27:24.583 7.4 96.5 1.18550312 1 9.0 1.18007756 110.59947703778
0:27:24.980 7.4 96.5 1.18555356 1 9.0 1.18007756 110.757567939511
0:27:25.375 7.4 96.5 1.18540562 1 9.0 1.18007756 110.699371149674
0:27:25.773 7.4 96.5 1.18546700 1 9.0 1.18007756 110.744479421626
0:27:26.178 7.4 96.5 1.18537570 1 9.0 1.18007756 111.178139434986
0:27:26.578 7.4 96.5 1.18538678 1 9.0 1.18007756 110.285046134978
0:27:26.978 7.4 96.5 1.18561650 1 9.0 1.18007756 110.656976665541
0:27:34.211 7.4 96.5 1.18599260 1 9.0 1.18013108 110.847738616063
0:27:34.609 7.4 96.5 1.18592334 1 9.0 1.18013108 111.215813282587
0:27:35.14 7.4 96.5 1.18581164 1 9.0 1.18013108 110.341879094391
0:27:35.411 7.4 96.5 1.18600988 1 9.0 1.18013108 111.081913357807
0:27:35.809 7.4 96.5 1.18575024 1 9.0 1.18013108 110.281222648194
0:27:36.222 7.4 96.5 1.18568886 1 9.0 1.18013108 110.290400964158
0:27:36.620 7.4 96.5 1.18562592 1 9.0 1.18013108 110.421144115119
0:27:37.33 7.4 96.5 1.18569828 1 9.0 1.18013108 110.645854666585
0:27:37.432 7.4 96.5 1.18564952 1 9.0 1.18013108 110.687756479995
0:27:37.840 7.4 96.5 1.18553782 1 9.0 1.18013108 111.054662066922
0:27:38.242 7.4 96.5 1.18551266 1 9.0 1.18013108 110.843868157124
0:27:38.650 7.4 96.5 1.18552052 1 9.0 1.18013108 111.112912593155
0:27:39.47 7.4 96.5 1.18546546 1 9.0 1.18013108 110.765898679439
0:27:39.464 7.4 96.5 1.18523562 1 9.0 1.18013108 111.125103413802
0:27:39.903 7.4 96.5 1.18534744 1 9.0 1.18013108 110.567331808182
0:27:40.378 7.4 96.5 1.18529856 1 9.0 1.18013108 110.181058826409
0:27:47.966 7.5 96.5 1.18641270 1 9.0 1.18002712 110.756925196903
0:27:48.424 7.5 96.5 1.18628990 1 9.0 1.18002712 110.920871697706
0:27:48.866 7.5 96.5 1.18613256 1 9.0 1.18002712 110.789567097561
0:27:49.287 7.5 96.5 1.18599260 1 9.0 1.18002712 110.414516422969
0:27:49.711 7.5 96.5 1.18611372 1 9.0 1.18002712 111.228092286508
0:27:50.137 7.5 96.5 1.18571878 1 9.0 1.18002712 110.719479028483
0:27:50.562 7.5 96.5 1.18578958 1 9.0 1.18002712 111.206914508987
0:27:50.982 7.5 96.5 1.18572974 1 9.0 1.18002712 110.508827246796
0:27:51.413 7.5 96.5 1.18559288 1 9.0 1.18002712 110.731482257967
0:27:51.834 7.5 96.5 1.18590606 1 9.0 1.18002712 110.693354533583
0:27:52.265 7.5 96.5 1.18584930 1 9.0 1.18002712 110.920059131371
0:27:52.689 7.5 96.5 1.18579268 1 9.0 1.18002712 110.541380016277
0:27:53.115 7.5 96.5 1.18573916 1 9.0 1.18002712 111.159877763879
0:27:53.532 7.5 96.5 1.18572032 1 9.0 1.18002712 111.020817640995
0:27:53.952 7.5 96.5 1.18547952 1 9.0 1.18002712 110.778371646032
0:27:54.371 7.5 96.5 1.18552840 1 9.0 1.18002712 110.62861578254
0:27:54.789 7.5 96.5 1.18554246 1 9.0 1.18002712 110.538302955311
0:27:55.213 7.5 96.5 1.18554878 1 9.0 1.18002712 110.65411633541
0:28:3.839 7.5 96.5 1.18640172 1 9.0 1.18004918 110.925961617824
0:28:4.277 7.5 96.5 1.18628526 1 9.0 1.18004918 111.143568058529
0:28:4.711 7.5 96.5 1.18608534 1 9.0 1.18004918 111.036733819524
0:28:5.137 7.5 96.5 1.18618298 1 9.0 1.18004918 111.311609217923
0:28:5.577 7.5 96.5 1.18606020 1 9.0 1.18004918 110.990576245999
0:28:6.8 7.5 96.5 1.18596112 1 9.0 1.18004918 110.409758823483
0:28:6.440 7.5 96.5 1.18618930 1 9.0 1.18004918 110.690589262061
0:28:6.867 7.5 96.5 1.18578482 1 9.0 1.18004918 111.431970646461
0:28:7.300 7.5 96.5 1.18591392 1 9.0 1.18004918 110.940130707584
0:28:7.734 7.5 96.5 1.18566680 1 9.0 1.18004918 110.605654893315
0:28:8.175 7.5 96.5 1.18571878 1 9.0 1.18004918 110.558168897436
0:28:8.608 7.5 96.5 1.18578016 1 9.0 1.18004918 110.527305864569
0:28:9.41 7.5 96.5 1.18571090 1 9.0 1.18004918 110.908833472807
0:28:9.470 7.5 96.5 1.18576444 1 9.0 1.18004918 110.826220722227
0:28:21.876 7.5 96.4 1.18616570 1 9.0 1.18001926 110.649623392641
0:28:22.334 7.5 96.4 1.18614518 1 9.0 1.18001926 110.807723778396
0:28:22.782 7.5 96.4 1.18599880 1 9.0 1.18001926 110.599148607668
0:28:23.232 7.5 96.4 1.18592012 1 9.0 1.18001926 110.679834109368
0:28:23.670 7.5 96.4 1.18589342 1 9.0 1.18001926 111.010916478867
0:28:24.119 7.5 96.4 1.18576122 1 9.0 1.18001926 110.309552215031
0:28:24.567 7.5 96.4 1.18575812 1 9.0 1.18001926 111.230293624259
0:28:25.75 7.5 96.4 1.18567312 1 9.0 1.18001926 110.902733163762
0:28:25.532 7.5 96.4 1.18581950 1 9.0 1.18001926 110.478895653685
0:28:25.996 7.5 96.4 1.18560230 1 9.0 1.18001926 110.621302871191
0:28:26.465 7.5 96.4 1.18544496 1 9.0 1.18001926 110.930303253554
0:28:27.18 7.5 96.4 1.18562746 1 9.0 1.18001926 110.645676939398
0:28:27.521 7.5 96.4 1.18556142 1 9.0 1.18001926 110.550219658391
0:28:28.35 7.5 96.4 1.18541038 1 9.0 1.18001926 110.797073591101
0:28:28.545 7.5 96.4 1.18547010 1 9.0 1.18001926 110.82326274151
0:28:29.38 7.5 96.4 1.18560862 1 9.0 1.18001926 111.021634660117
0:28:38.442 7.5 96.4 1.18618608 1 9.0 1.18000198 110.370733357809
0:28:38.925 7.5 96.4 1.18591226 1 9.0 1.18000198 110.837930035673
0:28:39.447 7.5 96.4 1.18622232 1 9.0 1.18000198 111.081510462465
0:28:39.941 7.5 96.4 1.18593120 1 9.0 1.18000198 110.754811848507
0:28:40.439 7.5 96.4 1.18573606 1 9.0 1.18000198 110.802928654885
0:28:40.930 7.5 96.4 1.18599724 1 9.0 1.18000198 110.962302833203
0:28:41.412 7.5 96.4 1.18579268 1 9.0 1.18000198 110.598669750003
0:28:41.902 7.5 96.4 1.18589974 1 9.0 1.18000198 110.598669750003
0:28:42.401 7.5 96.4 1.18585098 1 9.0 1.18000198 110.808002805507
0:28:42.910 7.5 96.4 1.18580056 1 9.0 1.18000198 110.326922952824
0:28:43.403 7.5 96.4 1.18583202 1 9.0 1.18000198 110.818707452816
0:28:43.907 7.5 96.4 1.18594062 1 9.0 1.18000198 110.95491263754
0:28:44.412 7.5 96.4 1.18577850 1 9.0 1.18000198 110.895804467591
0:28:44.960 7.5 96.4 1.18567156 1 9.0 1.18000198 111.163488149743
0:28:45.486 7.5 96.4 1.18574238 1 9.0 1.18000198 110.670600188015
0:28:45.995 7.5 96.4 1.18561018 1 9.0 1.18000198 110.957106011668
0:28:55.265 7.5 96.4 1.18594540 1 9.0 1.17986668 111.003037033524
0:28:55.759 7.5 96.4 1.18595790 1 9.0 1.17986668 110.84552550335
0:28:56.268 7.5 96.4 1.18594372 1 9.0 1.17986668 110.39363421339
0:28:56.764 7.5 96.4 1.18578172 1 9.0 1.17986668 110.629837902292
0:28:57.272 7.5 96.4 1.18581474 1 9.0 1.17986668 110.69283676162
0:28:57.768 7.5 96.4 1.18585562 1 9.0 1.17986668 110.79470325905
0:28:58.281 7.5 96.4 1.18536782 1 9.0 1.17986668 111.052132197622
0:28:58.787 7.5 96.4 1.18553304 1 9.0 1.17986668 111.078870985695
0:28:59.282 7.5 96.4 1.18545758 1 9.0 1.17986668 110.68033863627
0:28:59.775 7.5 96.4 1.18551732 1 9.0 1.17986668 110.973463066666
0:29:0.319 7.5 96.4 1.18542612 1 9.0 1.17986668 110.926138424828
0:29:0.827 7.5 96.4 1.18545126 1 9.0 1.17986668 111.041057560333
0:29:1.320 7.5 96.4 1.18559444 1 9.0 1.17986668 110.542297371545
0:29:1.817 7.5 96.4 1.18530964 1 9.0 1.17986668 110.948529414147
0:29:2.350 7.5 96.4 1.18548906 1 9.0 1.17986668 110.578862437714
0:29:12.218 7.4 96.4 1.18601454 1 9.0 1.17986358 110.720003856365
0:29:12.731 7.4 96.4 1.18597520 1 9.0 1.17986358 110.633169589332
0:29:13.228 7.4 96.4 1.18611216 1 9.0 1.17986358 110.437801106504
0:29:13.770 7.4 96.4 1.18550790 1 9.0 1.17986358 110.94225464315
0:29:14.274 7.4 96.4 1.18585718 1 9.0 1.17986358 110.469092143022
0:29:14.793 7.4 96.4 1.18564952 1 9.0 1.17986358 111.002898587476
0:29:15.303 7.4 96.4 1.18581474 1 9.0 1.17986358 111.158325496737
0:29:15.808 7.4 96.4 1.18573296 1 9.0 1.17986358 111.254429604257
0:29:16.327 7.4 96.4 1.18557870 1 9.0 1.17986358 110.787010282986
0:29:16.842 7.4 96.4 1.18552994 1 9.0 1.17986358 110.292694046197
0:29:17.357 7.4 96.4 1.18564642 1 9.0 1.17986358 110.327356790463
0:29:17.908 7.4 96.4 1.18558180 1 9.0 1.17986358 111.120716368328
0:29:18.471 7.4 96.4 1.18557870 1 9.0 1.17986358 111.084311645982
0:29:19.11 7.4 96.4 1.18551732 1 9.0 1.17986358 110.744423795264
0:29:19.555 7.4 96.4 1.18545758 1 9.0 1.17986358 110.613894784892
0:29:20.95 7.4 96.4 1.18557084 1 9.0 1.17986358 111.282437996446
0:29:30.406 7.4 96.4 1.18628204 1 9.0 1.17985404 110.377019518401
0:29:31.33 7.4 96.4 1.18620658 1 9.0 1.17985404 110.983296865241
0:29:31.568 7.4 96.4 1.18609488 1 9.0 1.17985404 110.983296865241
0:29:32.105 7.4 96.4 1.18625688 1 9.0 1.17985404 110.983296865241
0:29:32.650 7.4 96.4 1.18595636 1 9.0 1.17985404 110.983296865241
0:29:33.180 7.4 96.4 1.18608534 1 9.0 1.17985404 110.983296865241
0:29:33.724 7.4 96.4 1.18589496 1 9.0 1.17985404 110.983296865241
0:29:34.272 7.4 96.4 1.18590606 1 9.0 1.17985404 110.983296865241
0:29:34.804 7.4 96.4 1.18565894 1 9.0 1.17985404 110.983296865241
0:29:35.343 7.4 96.4 1.18582738 1 9.0 1.17985404 110.983296865241
0:29:35.867 7.4 96.4 1.18566048 1 9.0 1.17985404 110.983296865241
0:29:36.411 7.4 96.4 1.18578958 1 9.0 1.17985404 110.983296865241
0:29:36.945 7.4 96.4 1.18568408 1 9.0 1.17985404 110.983296865241
0:29:37.467 7.4 96.4 1.18561328 1 9.0 1.17985404 110.983296865241
