12:5:23.206 21.6 50.6 1.25223004 1 25.5 1.27146852 141.413885378602
12:5:23.302 21.6 50.6 1.25224268 1 25.5 1.27146852 158.5792482033
12:5:23.400 21.6 50.6 1.25242674 1 25.5 1.27146852 142.662547231644
12:5:23.493 21.6 50.6 1.25237954 1 25.5 1.27146852 142.964902357379
12:5:23.590 21.6 50.6 1.25241888 1 25.5 1.27146852 143.796985550875
12:5:23.685 21.6 50.6 1.25238276 1 25.5 1.27146852 147.47811016355
12:5:23.797 21.6 50.6 1.25232614 1 25.5 1.27146852 146.797357967322
12:5:23.894 21.6 50.6 1.25238276 1 25.5 1.27146852 148.089554048621
12:5:23.989 21.6 50.6 1.25244248 1 25.5 1.27146852 152.115127105905
12:5:24.389 21.6 50.6 1.25246930 1 25.5 1.27146852 145.294343116915
12:5:24.484 21.6 50.6 1.25241578 1 25.5 1.27146852 145.979892697734
12:5:24.580 21.6 50.6 1.25244248 1 25.5 1.27146852 147.582892285689
12:5:24.676 21.6 50.6 1.25241888 1 25.5 1.27146852 148.491373790968
12:5:24.729 21.6 50.6 1.25245202 1 25.5 1.27146852 149.369871525862
12:5:24.787 21.6 50.6 1.25237644 1 25.5 1.27146852 148.713100177196
12:5:24.884 21.6 50.6 1.25237334 1 25.5 1.27146852 148.348972541994
12:5:27.57 21.6 51.5 1.25231194 1 25.5 1.27133 146.539816333605
12:5:27.152 21.6 51.5 1.25234020 1 25.5 1.27133 146.209755851393
12:5:27.249 21.6 51.5 1.25225532 1 25.5 1.27133 148.696729350372
12:5:27.345 21.6 51.5 1.25231194 1 25.5 1.27133 145.471956702459
12:5:27.440 21.6 51.5 1.25229776 1 25.5 1.27133 144.588992698678
12:5:27.536 21.6 51.5 1.25228834 1 25.5 1.27133 144.897366698917
12:5:27.648 21.6 51.5 1.25233078 1 25.5 1.27133 145.739499353911
12:5:27.744 21.6 51.5 1.25238908 1 25.5 1.27133 144.865671791009
12:5:27.840 21.6 51.5 1.25234186 1 25.5 1.27133 145.148546720195
12:5:27.936 21.6 51.5 1.25236380 1 25.5 1.27133 145.459649550336
12:5:28.335 21.6 51.5 1.25231194 1 25.5 1.27133 145.526516870061
12:5:28.433 21.6 51.5 1.25241888 1 25.5 1.27133 145.257016369406
12:5:28.526 21.6 51.5 1.25234652 1 25.5 1.27133 145.214859574268
12:5:28.592 21.6 51.5 1.25234342 1 25.5 1.27133 145.360387713642
12:5:28.660 21.6 51.5 1.25238276 1 25.5 1.27133 145.779168895444
12:5:28.734 21.6 51.5 1.25236070 1 25.0 1.27133 145.672903662405
12:5:30.796 21.6 51.7 1.25214828 1 25.0 1.27130484 145.067081305105
12:5:30.870 21.6 51.7 1.25220490 1 25.0 1.27130484 145.293348510564
12:5:30.945 21.6 51.7 1.25220812 1 25.0 1.27130484 145.09045021407
12:5:31.23 21.6 51.7 1.25225688 1 25.0 1.27130484 145.164403651379
12:5:31.100 21.6 51.7 1.25222850 1 25.0 1.27130484 144.161221615678
12:5:31.195 21.6 51.7 1.25229466 1 25.0 1.27130484 145.935810932937
12:5:31.291 21.6 51.7 1.25231040 1 25.0 1.27130484 143.860652943343
12:5:31.386 21.6 51.7 1.25237954 1 25.0 1.27130484 140.696108137212
12:5:31.499 21.6 51.7 1.25227892 1 25.0 1.27130484 150.627702458336
12:5:31.604 21.6 51.7 1.25227570 1 25.0 1.27130484 136.98343662141
12:5:31.690 21.6 51.7 1.25223482 1 25.0 1.27130484 143.209917925823
12:5:31.786 21.6 51.7 1.25227892 1 25.0 1.27130484 143.601277345723
12:5:31.882 21.6 51.7 1.25227416 1 25.0 1.27130484 142.008722977778
12:5:31.978 21.6 51.7 1.25227570 1 25.5 1.27130484 142.092142226109
12:5:32.378 21.6 51.7 1.25221276 1 25.5 1.27130484 143.043572544217
12:5:32.495 21.6 51.7 1.25222540 1 25.5 1.27130484 142.376409699032
12:5:34.565 21.6 51.7 1.25215138 1 25.5 1.27127338 142.74767575331
12:5:34.656 21.6 51.7 1.25214518 1 25.5 1.27127338 143.225980488537
12:5:34.748 21.6 51.7 1.25213098 1 25.5 1.27127338 142.973855125534
12:5:34.841 21.6 51.7 1.25219548 1 25.5 1.27127338 142.686226243397
12:5:34.934 21.6 51.7 1.25219858 1 25.5 1.27127338 142.569587529379
12:5:35.26 21.6 51.7 1.25220024 1 25.5 1.27127338 141.795072175302
12:5:35.116 21.6 51.7 1.25213254 1 25.5 1.27127338 143.515616916642
12:5:35.209 21.6 51.7 1.25224746 1 25.0 1.27127338 141.876743902191
12:5:35.304 21.6 51.7 1.25225688 1 25.0 1.27127338 141.971959078115
12:5:35.396 21.6 51.7 1.25223004 1 25.0 1.27127338 141.102790746966
12:5:35.488 21.6 51.7 1.25224114 1 25.0 1.27127338 143.928936762318
12:5:35.582 21.6 51.7 1.25228048 1 25.0 1.27127338 142.756952497145
12:5:35.676 21.6 51.7 1.25226628 1 25.0 1.27127338 140.888188755949
12:5:35.769 21.6 51.7 1.25209474 1 25.0 1.27127338 139.84365792478
12:5:35.866 21.6 51.7 1.25219702 1 25.0 1.27127338 140.172338038281
12:5:35.960 21.6 51.7 1.25218606 1 25.0 1.27127338 140.998812039524
12:5:38.74 21.7 51.8 1.25199878 1 25.0 1.27119148 141.358913934976
12:5:38.178 21.7 51.8 1.25209474 1 25.0 1.27119148 141.644793650047
12:5:38.402 21.7 51.8 1.25218284 1 25.0 1.27119148 140.489375665126
12:5:38.549 21.7 51.8 1.25211834 1 25.0 1.27119148 141.048927952295
12:5:38.654 21.7 51.8 1.25217032 1 25.0 1.27119148 141.659852788274
12:5:38.758 21.7 51.8 1.25214828 1 25.0 1.27119148 141.608249139892
12:5:38.866 21.7 51.8 1.25215768 1 25.0 1.27119148 141.495175844868
12:5:38.974 21.7 51.8 1.25206960 1 25.0 1.27119148 141.726443855077
12:5:39.79 21.7 51.8 1.25218760 1 25.0 1.27119148 141.482253879278
12:5:39.183 21.7 51.8 1.25212466 1 25.0 1.27119148 137.408984363359
12:5:39.290 21.7 51.8 1.25216878 1 25.0 1.27119148 136.79195809958
12:5:39.399 21.7 51.8 1.25213886 1 25.0 1.27119148 144.165346116595
12:5:39.506 21.7 51.8 1.25216556 1 25.0 1.27119148 141.947445483449
12:5:39.613 21.7 51.8 1.25214040 1 25.0 1.27119148 138.371836194286
12:5:39.725 21.7 51.8 1.25212944 1 25.0 1.27119148 137.730484627711
12:5:39.834 21.7 51.8 1.25203336 1 25.0 1.27119148 137.96035370418
12:5:41.988 21.7 51.4 1.25446772 1 25.0 1.27111446 139.139231019476
12:5:42.103 21.7 51.4 1.25428832 1 25.0 1.27111446 137.866655313633
12:5:42.224 21.7 51.4 1.25429774 1 25.0 1.27111446 138.558873378669
12:5:42.342 21.7 51.4 1.25431346 1 25.0 1.27111446 139.189208814794
12:5:42.459 21.7 51.4 1.25433398 1 25.0 1.27111446 138.983791986639
12:5:42.578 21.7 51.4 1.25435912 1 25.0 1.27111446 138.551235234133
12:5:42.695 21.7 51.4 1.25436390 1 25.0 1.27111446 138.424258679571
12:5:42.813 21.7 51.4 1.25434648 1 25.0 1.27111446 138.213134831657
12:5:45.154 21.7 51.5 1.25411522 1 25.0 1.2704755 136.298981441701
12:5:45.282 21.7 51.5 1.25410104 1 25.0 1.2704755 136.335337054296
12:5:45.410 21.7 51.5 1.25421596 1 25.0 1.2704755 136.268447258102
12:5:45.536 21.7 51.5 1.25413250 1 25.0 1.2704755 135.858988727441
12:5:45.661 21.7 51.5 1.25422228 1 25.0 1.2704755 136.759006739119
12:5:45.789 21.7 51.5 1.25418914 1 25.0 1.2704755 136.900859586782
12:5:45.917 21.7 51.5 1.25422848 1 25.0 1.2704755 136.97187052095
12:5:46.46 21.7 51.5 1.25420022 1 25.0 1.2704755 136.313981249924
12:5:46.177 21.7 51.5 1.25426948 1 25.0 1.2704755 136.510173741742
12:5:46.308 21.7 51.5 1.25431502 1 25.0 1.2704755 136.345479647841
12:5:46.436 21.7 51.5 1.25434340 1 25.0 1.2704755 136.606823019779
12:5:46.564 21.7 51.5 1.25430096 1 25.0 1.2704755 137.009278970155
12:5:46.694 21.7 51.5 1.25418126 1 25.0 1.2704755 136.671884413254
12:5:46.826 21.7 51.5 1.25423634 1 25.0 1.2704755 136.431787825071
12:5:46.958 21.7 51.5 1.25426948 1 25.0 1.2704755 136.226947152652
12:5:47.92 21.7 51.5 1.25431036 1 25.0 1.2704755 136.664295938105
12:5:47.229 21.7 51.5 1.25427412 1 25.0 1.2704755 136.73967605434
12:5:49.842 21.7 51.3 1.25410736 1 25.0 1.2704221 134.268477632672
12:5:49.981 21.7 51.3 1.25408066 1 25.0 1.2704221 134.142623663638
12:5:50.123 21.7 51.3 1.25419236 1 25.0 1.2704221 134.007895856618
12:5:50.268 21.7 51.3 1.25424266 1 25.0 1.2704221 134.309418405718
12:5:50.408 21.7 51.3 1.25409794 1 25.0 1.2704221 133.945716272321
12:5:50.549 21.7 51.3 1.25415612 1 25.0 1.2704221 134.164519365912
12:5:50.695 21.7 51.3 1.25418448 1 25.0 1.2704221 133.470063503954
12:5:50.839 21.7 51.3 1.25416554 1 25.0 1.2704221 133.470063503954
12:5:50.979 21.7 51.3 1.25417816 1 25.0 1.2704221 134.354250795471
12:5:51.120 21.7 51.3 1.25418126 1 25.0 1.2704221 134.652303315586
12:5:51.266 21.7 51.3 1.25420022 1 25.0 1.2704221 134.376425894292
12:5:51.408 21.7 51.3 1.25416874 1 25.0 1.2704221 133.88356899332
12:5:51.552 21.7 51.3 1.25424266 1 25.0 1.2704221 134.356072925482
12:5:51.701 21.7 51.3 1.25416874 1 25.0 1.2704221 134.379285092208
12:5:51.847 21.7 51.3 1.25428044 1 25.0 1.2704221 134.155405190489
12:5:51.995 21.7 51.3 1.25426472 1 25.0 1.2704221 134.606319685489
12:5:54.883 21.7 51.2 1.25396264 1 25.0 1.2703166 131.425914704514
12:5:55.39 21.7 51.2 1.25388228 1 25.0 1.2703166 131.687565327093
12:5:55.197 21.7 51.2 1.25397992 1 25.0 1.2703166 132.24128373768
12:5:55.357 21.7 51.2 1.25397670 1 25.0 1.2703166 132.704610144116
12:5:55.516 21.7 51.2 1.25403964 1 25.0 1.2703166 132.413179297358
12:5:55.671 21.7 51.2 1.25394058 1 25.0 1.2703166 132.330535863214
12:5:55.830 21.7 51.2 1.25395786 1 25.0 1.2703166 132.247833859025
12:5:55.987 21.7 51.2 1.25406324 1 25.0 1.2703166 131.863753775697
12:5:56.149 21.7 51.2 1.25405704 1 25.0 1.2703166 131.863753775697
12:5:56.308 21.7 51.2 1.25406014 1 25.0 1.2703166 132.25235242655
12:5:56.464 21.7 51.2 1.25407898 1 25.0 1.2703166 131.816336394148
12:5:56.624 21.7 51.2 1.25402868 1 25.0 1.2703166 132.17282188257
12:5:56.782 21.7 51.2 1.25408066 1 25.0 1.2703166 132.27689154809
12:5:56.946 21.7 51.2 1.25405074 1 25.0 1.2703166 131.980265994854
12:5:57.107 21.7 51.2 1.25406014 1 25.0 1.2703166 132.309827855968
12:5:57.269 21.7 51.2 1.25408530 1 25.0 1.2703166 131.44064498816
12:5:57.430 21.7 51.2 1.25411212 1 25.0 1.2703166 131.791032588389
12:6:0.602 21.7 51.6 1.25395154 1 25.0 1.2702427 131.08267863998
12:6:0.773 21.7 51.6 1.25394058 1 25.0 1.2702427 130.927385073863
12:6:0.946 21.7 51.6 1.25401926 1 25.0 1.2702427 130.516767200862
12:6:1.119 21.7 51.6 1.25394058 1 25.0 1.2702427 130.292612072614
12:6:1.297 21.7 51.6 1.25402868 1 25.0 1.2702427 130.64008614807
12:6:1.473 21.7 51.6 1.25403810 1 25.0 1.2702427 130.616116067477
12:6:1.643 21.7 51.6 1.25403178 1 25.0 1.2702427 130.539172386707
12:6:1.820 21.7 51.6 1.25403022 1 25.0 1.2702427 130.292560239044
12:6:1.992 21.7 51.6 1.25407588 1 25.0 1.2702427 130.292560239044
12:6:2.165 21.7 51.6 1.25416088 1 25.0 1.2702427 129.87416501804
12:6:2.343 21.7 51.6 1.25409794 1 25.0 1.2702427 130.117099355509
12:6:2.520 21.7 51.6 1.25413728 1 25.0 1.2702427 130.231927602447
12:6:2.698 21.7 51.6 1.25412310 1 25.0 1.2702427 130.045412928395
12:6:2.872 21.7 51.6 1.25412000 1 25.0 1.2702427 130.647030055569
12:6:3.49 21.7 51.6 1.25418604 1 25.0 1.2702427 130.735160282447
12:6:3.226 21.7 51.6 1.25414192 1 25.0 1.2702427 130.25367850305
12:6:6.861 21.7 52.2 1.25387288 1 25.0 1.2701577 129.2423771899
12:6:7.41 21.7 52.2 1.25395942 1 25.0 1.2701577 128.784967894956
12:6:7.228 21.7 52.2 1.25402236 1 25.0 1.2701577 126.742587030664
12:6:7.420 21.7 52.2 1.25397838 1 25.0 1.2701577 128.830806335474
12:6:7.608 21.7 52.2 1.25402390 1 25.0 1.2701577 127.96186866179
12:6:7.797 21.7 52.2 1.25402868 1 25.0 1.2701577 127.802531445619
12:6:7.983 21.7 52.2 1.25404286 1 25.0 1.2701577 125.737731871916
12:6:8.177 21.7 52.2 1.25407278 1 25.0 1.2701577 125.489701849926
12:6:8.366 21.7 52.2 1.25405228 1 25.0 1.2701577 126.527505355228
12:6:8.557 21.7 52.2 1.25406324 1 25.0 1.2701577 126.475710152071
12:6:8.746 21.7 52.2 1.25410104 1 25.0 1.2701577 127.126240994347
12:6:8.934 21.7 52.2 1.25406170 1 25.0 1.2701577 126.492724463922
12:6:9.123 21.7 52.2 1.25411522 1 25.0 1.2701577 126.604185708816
12:6:9.316 21.7 52.2 1.25414824 1 25.0 1.2701577 126.604185708816
12:6:9.508 21.7 52.2 1.25403810 1 25.0 1.2701577 126.604185708816
12:6:9.699 21.7 52.2 1.25404596 1 25.0 1.2701577 127.329860288011
12:6:13.416 21.7 52.1 1.25389970 1 25.0 1.2700932 117.750964309255
12:6:13.614 21.7 52.1 1.25392950 1 25.0 1.2700932 124.316121580432
12:6:13.816 21.7 52.1 1.25400508 1 25.0 1.2700932 124.316121580432
12:6:14.15 21.7 52.1 1.25393904 1 25.0 1.2700932 126.164281416968
12:6:14.221 21.7 52.1 1.25404752 1 25.0 1.2700932 125.508350555228
12:6:14.422 21.7 52.1 1.25400818 1 25.0 1.2700932 124.780057544183
12:6:14.622 21.7 52.1 1.25403022 1 25.0 1.2700932 125.405099323256
12:6:14.825 21.7 52.1 1.25401140 1 25.0 1.2700932 125.077712678218
12:6:15.26 21.7 52.1 1.25393582 1 25.0 1.2700932 125.218620350653
12:6:15.234 21.7 52.1 1.25408066 1 25.0 1.2700932 124.44026087714
12:6:15.434 21.7 52.1 1.25395942 1 25.0 1.2700932 124.688546236077
12:6:15.639 21.7 52.1 1.25399720 1 25.0 1.2700932 125.671931891086
12:6:15.844 21.7 52.1 1.25401772 1 25.0 1.2700932 125.378186664557
12:6:16.49 21.7 52.1 1.25404132 1 25.0 1.2700932 125.694889577185
12:6:16.262 21.7 52.1 1.25399876 1 25.0 1.2700932 125.193913614267
12:6:16.468 21.7 52.1 1.25403022 1 25.0 1.2700932 125.258886665768
12:6:16.675 21.7 52.1 1.25408220 1 25.0 1.2700932 125.444249695809
12:6:20.695 21.7 51.9 1.25373280 1 25.0 1.27001298 124.308403354519
12:6:20.908 21.7 51.9 1.25378168 1 25.0 1.27001298 127.56145785894
12:6:21.125 21.7 51.9 1.25383830 1 25.0 1.27001298 123.680871490596
12:6:21.346 21.7 51.9 1.25386346 1 25.0 1.27001298 120.340998032809
12:6:21.562 21.7 51.9 1.25382888 1 25.0 1.27001298 119.424490146307
12:6:21.778 21.7 51.9 1.25387918 1 25.0 1.27001298 123.010321000182
12:6:22.0 21.7 51.9 1.25393272 1 25.0 1.27001298 124.588435608004
12:6:22.220 21.7 51.9 1.25389182 1 25.0 1.27001298 123.470961394255
12:6:22.443 21.7 51.9 1.25389802 1 25.0 1.27001298 122.273387230489
12:6:22.664 21.7 51.9 1.25400662 1 25.0 1.27001298 122.313840950972
12:6:22.883 21.7 51.9 1.25392640 1 25.0 1.27001298 122.531304145298
12:6:23.104 21.7 51.9 1.25389338 1 25.0 1.27001298 122.504578605879
12:6:23.330 21.7 51.9 1.25401450 1 25.0 1.27001298 122.365792431418
12:6:23.549 21.7 51.9 1.25390756 1 25.0 1.27001298 122.441320992457
12:6:23.770 21.7 51.9 1.25395942 1 25.0 1.27001298 123.381812798694
12:6:23.990 21.7 51.9 1.25388228 1 25.0 1.27001298 123.990504594316
12:6:28.306 21.7 51.7 1.25370610 1 25.0 1.2699169 121.456514199311
12:6:28.534 21.7 51.7 1.25377846 1 25.0 1.2699169 122.263251100585
12:6:28.763 21.7 51.7 1.25377214 1 25.0 1.2699169 122.138113243801
12:6:28.996 21.7 51.7 1.25381934 1 25.0 1.2699169 121.435595259242
12:6:29.225 21.7 51.7 1.25384616 1 25.0 1.2699169 121.839823002423
12:6:29.456 21.7 51.7 1.25380206 1 25.0 1.2699169 124.239709910177
12:6:29.686 21.7 51.7 1.25390912 1 25.0 1.2699169 119.355720238459
12:6:29.915 21.7 51.7 1.25389648 1 25.0 1.2699169 121.968593449595
12:6:30.150 21.7 51.7 1.25386822 1 25.0 1.2699169 119.138678986851
12:6:30.382 21.7 51.7 1.25387918 1 25.0 1.2699169 121.302226480185
12:6:30.642 21.7 51.7 1.25387288 1 25.0 1.2699169 119.120306790747
12:6:30.877 21.7 51.7 1.25383508 1 25.0 1.2699169 118.473952972385
12:6:31.118 21.7 51.7 1.25385558 1 25.0 1.2699169 118.735023118994
12:6:31.358 21.7 51.7 1.25385248 1 25.0 1.2699169 119.473334629646
12:6:31.596 21.7 51.7 1.25388706 1 25.0 1.2699169 118.871912408147
12:6:31.830 21.7 51.7 1.25387918 1 25.0 1.2699169 121.143866929046
12:6:32.66 21.7 51.7 1.25394524 1 25.0 1.2699169 121.551505461919
12:6:36.676 21.7 51.4 1.25355184 1 25.0 1.26981782 120.94480612584
12:6:36.925 21.7 51.4 1.25359594 1 25.0 1.26981782 120.024592329804
12:6:37.173 21.7 51.4 1.25360382 1 25.0 1.26981782 116.621310522748
12:6:37.424 21.7 51.4 1.25366200 1 25.0 1.26981782 118.948116080006
12:6:37.666 21.7 51.4 1.25367772 1 25.0 1.26981782 118.617934551548
12:6:37.916 21.7 51.4 1.25371242 1 25.0 1.26981782 125.813458792565
12:6:38.172 21.7 51.4 1.25367618 1 25.0 1.26981782 115.953805087532
12:6:38.417 21.7 51.4 1.25365890 1 25.0 1.26981782 115.89194820364
12:6:38.664 21.7 51.4 1.25370300 1 25.0 1.26981782 118.031848768081
12:6:38.913 21.7 51.4 1.25372338 1 25.0 1.26981782 119.285080515141
12:6:39.166 21.7 51.4 1.25371706 1 25.0 1.26981782 119.078666067665
12:6:39.421 21.7 51.4 1.25373280 1 25.0 1.26981782 118.559985255945
12:6:39.674 21.7 51.4 1.25371874 1 25.0 1.26981782 117.531340011342
12:6:39.925 21.7 51.4 1.25376750 1 25.0 1.26981782 117.599102951758
12:6:40.207 21.7 51.4 1.25375020 1 25.0 1.26981782 118.431908066491
12:6:40.461 21.7 51.4 1.25375808 1 25.0 1.26981782 118.782376418112
12:6:45.419 21.8 51.3 1.25345278 1 25.0 1.26975644 106.400035079849
12:6:45.679 21.8 51.3 1.25356758 1 25.0 1.26975644 124.5989098019
12:6:45.945 21.8 51.3 1.25352990 1 25.0 1.26975644 115.293091046055
12:6:46.213 21.8 51.3 1.25357866 1 25.0 1.26975644 118.284204682819
12:6:46.479 21.8 51.3 1.25358332 1 25.0 1.26975644 118.284204682819
12:6:46.742 21.8 51.3 1.25361324 1 25.0 1.26975644 118.284204682819
12:6:47.4 21.8 51.3 1.25358964 1 25.0 1.26975644 118.284204682819
12:6:47.272 21.8 51.3 1.25369036 1 25.0 1.26975644 118.284204682819
12:6:47.538 21.8 51.3 1.25362266 1 25.0 1.26975644 107.6027684444
12:6:47.804 21.8 51.3 1.25362742 1 25.0 1.26975644 111.198804064855
12:6:48.68 21.8 51.3 1.25363374 1 25.0 1.26975644 112.826549305648
12:6:48.341 21.8 51.3 1.25369668 1 25.0 1.26975644 112.374203540389
12:6:48.606 21.8 51.3 1.25365580 1 25.0 1.26975644 112.590559938383
12:6:48.871 21.8 51.3 1.25365890 1 25.0 1.26975644 112.28043374973
12:6:49.137 21.8 51.3 1.25374066 1 25.0 1.26975644 111.437280451798
12:6:49.406 21.8 51.3 1.25373912 1 25.0 1.26975644 111.513240997255
12:6:55.220 21.8 51.3 1.25335992 1 25.0 1.2696526 107.408984727852
12:6:55.500 21.8 51.3 1.25331270 1 25.0 1.2696526 109.600743727757
12:6:55.780 21.8 51.3 1.25341976 1 25.0 1.2696526 109.254391154791
12:6:56.72 21.8 51.3 1.25341188 1 25.0 1.2696526 111.260324670731
12:6:56.366 21.8 51.3 1.25346220 1 25.0 1.2696526 109.492777048589
12:6:56.650 21.8 51.3 1.25346696 1 25.0 1.2696526 109.557479083062
12:6:56.936 21.8 51.3 1.25346530 1 25.0 1.2696526 109.506722833336
12:6:57.229 21.8 51.3 1.25348734 1 25.0 1.2696526 109.503345289116
12:6:57.525 21.8 51.3 1.25349676 1 25.0 1.2696526 109.202142857068
12:6:57.819 21.8 51.3 1.25346374 1 25.0 1.2696526 110.261575554057
12:6:58.112 21.8 51.3 1.25350308 1 25.0 1.2696526 110.720610158489
12:6:58.407 21.8 51.3 1.25347316 1 25.0 1.2696526 110.202566635151
12:6:58.699 21.8 51.3 1.25351250 1 25.0 1.2696526 109.57814263877
12:7:8.839 21.8 51.3 1.25345910 1 25.0 1.2696526 109.57814263877
12:7:9.138 21.8 51.3 1.25362742 1 25.0 1.2696526 109.608733203506
