14:31:50.887 25.1 40.4 1.24405860 1 23.5 1.26274776 146.436530337286
14:31:50.984 25.1 40.4 1.24417340 1 23.5 1.26274776 146.827546462753
14:31:51.96 25.1 40.4 1.24432456 1 23.5 1.26274776 147.103471042009
14:31:51.192 25.1 40.4 1.24419546 1 23.5 1.26274776 147.219607538509
14:31:51.287 25.1 40.4 1.24438118 1 23.5 1.26274776 146.974377551404
14:31:51.383 25.1 40.4 1.24429930 1 23.5 1.26274776 147.10878716419
14:31:51.479 25.1 40.4 1.24429142 1 23.5 1.26274776 146.245857453889
14:31:51.576 25.1 40.4 1.24439848 1 23.5 1.26274776 146.627709567592
14:31:51.671 25.1 40.4 1.24439538 1 23.5 1.26274776 146.464032147131
14:31:51.687 25.1 40.4 1.24434972 1 23.5 1.26274776 146.784246373158
14:31:51.783 25.1 40.4 1.24440158 1 23.5 1.26274776 146.301719284581
14:31:51.879 25.1 40.4 1.24435282 1 23.5 1.26274776 147.074190082343
14:31:51.975 25.1 40.4 1.24448026 1 23.5 1.26274776 146.805472417754
14:31:52.70 25.1 40.4 1.24435282 1 23.5 1.26274776 146.86455832303
14:31:52.166 25.1 40.4 1.24440790 1 23.5 1.26274776 147.183254420967
14:31:52.262 25.1 40.4 1.24437964 1 23.5 1.26274776 146.690398676074
14:31:52.374 25.1 40.4 1.24440158 1 23.5 1.26274776 146.328626677893
14:31:52.470 25.1 40.4 1.24439538 1 23.5 1.26274776 146.702745095822
14:31:52.566 25.1 40.4 1.24444568 1 23.5 1.26274776 146.970772802392
14:31:54.532 25.1 40.4 1.24395788 1 23.5 1.26272106 147.098132219894
14:31:54.628 25.1 40.4 1.24401772 1 23.5 1.26272106 147.167271014845
14:31:54.724 25.1 40.4 1.24408532 1 23.5 1.26272106 146.329273620926
14:31:54.819 25.1 40.4 1.24416400 1 23.5 1.26272106 145.767898376321
14:31:54.915 25.1 40.4 1.24414038 1 23.5 1.26272106 145.691196500767
14:31:54.932 25.1 40.4 1.24421596 1 23.5 1.26272106 145.691196500767
14:31:55.27 25.1 40.4 1.24416400 1 23.5 1.26272106 146.221072904172
14:31:55.123 25.1 40.4 1.24428678 1 23.5 1.26272106 146.966541169641
14:31:55.219 25.1 40.4 1.24411834 1 23.5 1.26272106 146.709635764364
14:31:55.315 25.1 40.4 1.24426950 1 23.5 1.26272106 147.237211074911
14:31:55.411 25.1 40.4 1.24425208 1 23.5 1.26272106 146.701743605141
14:31:55.506 25.1 40.4 1.24421120 1 23.5 1.26272106 146.671594658343
14:31:55.618 25.1 40.4 1.24420810 1 23.5 1.26272106 146.555148919604
14:31:55.714 25.1 40.4 1.24422848 1 23.5 1.26272106 146.10995676306
14:31:55.810 25.1 40.4 1.24424898 1 23.5 1.26272106 146.320958570495
14:31:55.906 25.1 40.4 1.24426950 1 23.5 1.26272106 146.827362408438
14:31:56.2 25.1 40.4 1.24424422 1 23.5 1.26272106 146.896889136467
14:31:56.98 25.1 40.4 1.24425840 1 23.5 1.26272106 146.891748907135
14:31:56.194 25.1 40.4 1.24430406 1 23.5 1.26272106 146.376532216874
14:31:56.210 25.1 40.4 1.24422538 1 23.5 1.26272106 146.599136401553
14:31:58.175 25.1 40.4 1.24369514 1 23.5 1.26259196 139.697648839198
14:31:58.271 25.1 40.4 1.24392640 1 23.5 1.26259196 141.536719945147
14:31:58.367 25.1 40.4 1.24392640 1 23.5 1.26259196 141.586627656571
14:31:58.463 25.1 40.4 1.24384140 1 23.5 1.26259196 141.375513353741
14:31:58.559 25.1 40.4 1.24393738 1 23.5 1.26259196 140.946585274056
14:31:58.655 25.1 40.4 1.24400664 1 23.5 1.26259196 140.827510706852
14:31:58.751 25.1 40.4 1.24406016 1 23.5 1.26259196 140.620946082392
14:31:58.863 25.1 40.4 1.24388396 1 23.5 1.26259196 139.927458960482
14:31:58.959 25.1 40.4 1.24399876 1 23.5 1.26259196 140.956570151298
14:31:59.54 25.1 40.4 1.24402714 1 23.5 1.26259196 141.466198115354
14:31:59.150 25.1 40.4 1.24405384 1 23.5 1.26259196 141.122801674434
14:31:59.246 25.1 40.4 1.24408066 1 23.5 1.26259196 140.784367072459
14:31:59.342 25.1 40.4 1.24405384 1 23.5 1.26259196 140.405638025596
14:31:59.438 25.1 40.4 1.24400032 1 23.5 1.26259196 140.311797770204
14:31:59.550 25.1 40.4 1.24398624 1 23.5 1.26259196 140.4129939906
14:31:59.646 25.1 40.4 1.24403178 1 23.5 1.26259196 140.708677743067
14:31:59.742 25.1 40.4 1.24403024 1 23.5 1.26259196 140.860280802846
14:31:59.837 25.1 40.4 1.24412000 1 23.5 1.26259196 140.305582375713
14:31:59.934 25.1 40.4 1.24405384 1 23.5 1.26259196 140.547457234579
14:32:2.891 33.0 29.8 1.21990442 1 24.5 1.24141812 136.364743325085
14:32:2.987 33.0 29.8 1.21999728 1 24.5 1.24141812 136.553533768305
14:32:3.82 33.0 29.8 1.22008062 1 24.5 1.24141812 136.64340326843
14:32:3.178 33.0 29.8 1.22011686 1 24.5 1.24141812 136.565101318023
14:32:3.274 33.0 29.8 1.22012628 1 24.5 1.24141812 137.589283858745
14:32:3.370 33.0 29.8 1.22021436 1 24.5 1.24141812 136.757539382572
14:32:3.482 33.0 29.8 1.22039532 1 24.5 1.24141812 136.635930502263
14:32:3.578 33.0 29.8 1.22044408 1 24.5 1.24141812 136.973990442792
14:32:3.674 33.0 29.8 1.22054172 1 24.5 1.24141812 137.052631722
14:32:3.770 33.0 29.8 1.22054804 1 24.5 1.24141812 137.083087704792
14:32:3.865 33.0 29.8 1.22071946 1 24.5 1.24141812 137.10196340705
14:32:3.961 33.0 29.8 1.22092568 1 24.5 1.24141812 137.25545223626
14:32:4.57 33.0 29.8 1.22087682 1 24.5 1.24141812 137.9082421521
14:32:4.73 33.0 29.8 1.22095870 1 24.5 1.24141812 137.9082421521
14:32:4.169 33.0 29.8 1.22111284 1 24.5 1.24141812 135.866221193615
14:32:4.265 33.0 29.8 1.22106886 1 24.5 1.24141812 136.147180956521
14:32:4.361 33.0 29.8 1.22121048 1 24.5 1.24141812 136.925682811066
14:32:4.457 33.0 29.8 1.22129380 1 24.5 1.24141812 130.919849778334
14:32:4.552 33.0 29.8 1.22131276 1 24.5 1.24141812 131.370502122878
14:32:6.615 33.0 29.8 1.22276198 1 24.5 1.24461878 133.676690909985
14:32:6.727 33.0 29.8 1.22275258 1 24.5 1.24461878 133.406195472327
14:32:6.823 33.0 29.8 1.22282804 1 24.5 1.24461878 132.228644714128
14:32:6.919 33.0 29.8 1.22293508 1 24.5 1.24461878 132.869062589047
14:32:7.15 33.0 29.8 1.22297132 1 24.5 1.24461878 132.617194156816
14:32:7.110 33.0 29.8 1.22302950 1 24.5 1.24461878 132.547431470437
14:32:7.206 33.0 29.8 1.22305786 1 24.5 1.24461878 132.62988875944
14:32:7.303 33.0 29.8 1.22307516 1 24.5 1.24461878 133.574712027737
14:32:7.414 33.0 29.8 1.22311914 1 24.5 1.24461878 133.8879190073
14:32:7.511 33.0 29.8 1.22324192 1 24.5 1.24461878 133.457675505455
14:32:7.606 33.0 29.8 1.22325612 1 24.5 1.24461878 132.935080273396
14:32:7.702 33.0 29.8 1.22326552 1 24.5 1.24461878 133.43956891988
14:32:7.798 33.0 29.8 1.22333158 1 24.5 1.24461878 132.512355966964
14:32:7.894 33.0 29.8 1.22342920 1 24.5 1.24461878 132.518681926679
14:32:7.990 33.0 29.8 1.22345280 1 24.5 1.24461878 132.700364120097
14:32:8.6 33.0 29.8 1.22346854 1 24.5 1.24461878 132.700364120097
14:32:8.102 33.0 29.8 1.22350944 1 24.5 1.24461878 132.325956749332
14:32:8.198 33.0 29.8 1.22352206 1 24.5 1.24461878 132.772983259438
14:32:8.294 33.0 29.8 1.22367620 1 24.5 1.24461878 123.758568333798
14:32:10.355 33.0 29.8 1.22469438 1 24.5 1.2465763 126.994492621485
14:32:10.451 33.0 29.8 1.22464716 1 24.5 1.2465763 126.847678060113
14:32:10.547 33.0 29.8 1.22472584 1 24.5 1.2465763 126.767612098511
14:32:10.659 33.0 29.8 1.22482180 1 24.5 1.2465763 127.308112253086
14:32:10.755 33.0 29.8 1.22479498 1 24.5 1.2465763 127.439288748739
14:32:10.851 33.0 29.8 1.22481238 1 24.5 1.2465763 126.144527578208
14:32:10.946 33.0 29.8 1.22485328 1 24.5 1.2465763 125.681502698675
14:32:11.43 33.0 29.8 1.22490514 1 24.5 1.2465763 126.433382924706
14:32:11.138 33.0 29.8 1.22497762 1 24.5 1.2465763 126.397546562967
14:32:11.234 33.0 29.8 1.22507668 1 24.5 1.2465763 126.89596954905
14:32:11.250 33.0 29.8 1.22509086 1 24.5 1.2465763 126.558644878088
14:32:11.347 33.0 29.8 1.22503888 1 24.5 1.2465763 126.392682016547
14:32:11.442 33.0 29.8 1.22509562 1 24.5 1.2465763 127.376165946762
14:32:11.538 33.0 29.8 1.22521042 1 24.5 1.2465763 126.360682398604
14:32:11.634 33.0 29.8 1.22518838 1 24.5 1.2465763 126.283051988711
14:32:11.730 33.0 29.8 1.22521830 1 24.5 1.2465763 126.553946429128
14:32:11.826 33.0 29.8 1.22524666 1 24.5 1.2465763 127.088640287393
14:32:11.921 33.0 29.8 1.22525454 1 24.5 1.2465763 127.439262954337
14:32:11.937 33.0 29.8 1.22536314 1 24.5 1.2465763 127.079454110921
14:32:13.999 33.0 29.8 1.22609640 1 25.0 1.24800504 121.625523620148
14:32:14.95 33.0 29.8 1.22620332 1 25.0 1.24800504 121.30095390155
14:32:14.191 33.0 29.8 1.22618926 1 25.0 1.24800504 120.96333555121
14:32:14.287 33.0 29.8 1.22633398 1 25.0 1.24800504 120.942929634309
14:32:14.383 33.0 29.8 1.22624266 1 25.0 1.24800504 120.551226957619
14:32:14.479 33.0 29.8 1.22637022 1 25.0 1.24800504 120.735580117983
14:32:14.591 33.0 29.8 1.22635282 1 25.0 1.24800504 120.427176729585
14:32:14.686 33.0 29.8 1.22636544 1 24.5 1.24800504 121.032082622436
14:32:14.782 33.0 29.8 1.22642684 1 24.5 1.24800504 121.048081265235
14:32:14.879 33.0 29.8 1.22647870 1 24.5 1.24800504 121.172155514461
14:32:14.974 33.0 29.8 1.22639536 1 24.5 1.24800504 121.101477867534
14:32:15.70 33.0 29.8 1.22656692 1 24.5 1.24800504 121.349819683087
14:32:15.166 33.0 29.8 1.22668016 1 24.5 1.24800504 120.669238249714
14:32:15.182 33.0 29.8 1.22665500 1 24.5 1.24800504 120.878531291305
14:32:15.278 33.0 29.8 1.22669590 1 25.0 1.24800504 120.914977956977
14:32:15.374 33.0 29.8 1.22656846 1 25.0 1.24800504 121.05496048745
14:32:15.470 33.0 29.8 1.22664558 1 25.0 1.24800504 120.898992212804
14:32:15.566 33.0 29.8 1.22666752 1 25.0 1.24800504 120.604221821573
14:32:15.661 33.0 29.8 1.22675096 1 25.0 1.24800504 121.415994739851
14:32:15.757 33.0 29.8 1.22674000 1 25.0 1.24800504 121.020482137435
14:32:17.835 33.0 29.8 1.22742450 1 24.5 1.24921202 115.698991784067
14:32:17.931 33.0 29.8 1.22735834 1 25.0 1.24921202 116.618671993039
14:32:18.27 33.0 29.8 1.22744966 1 25.0 1.24921202 116.66457884147
14:32:18.122 33.0 29.8 1.22759760 1 25.0 1.24921202 116.180577645867
14:32:18.218 33.0 29.8 1.22744810 1 25.0 1.24921202 116.638275467484
14:32:18.314 33.0 29.8 1.22750782 1 25.0 1.24921202 116.364352530772
14:32:18.411 33.0 29.8 1.22754086 1 25.0 1.24921202 115.371066885741
14:32:18.427 33.0 29.8 1.22769356 1 25.0 1.24921202 115.653049969068
14:32:18.523 33.0 29.8 1.22765576 1 25.0 1.24921202 115.761679569474
14:32:18.619 33.0 29.8 1.22758496 1 25.0 1.24921202 115.432700061162
14:32:18.713 33.0 29.8 1.22771872 1 25.0 1.24921202 115.570636825231
14:32:18.810 33.0 29.8 1.22774864 1 25.0 1.24921202 116.178680434975
14:32:18.906 33.0 29.8 1.22775960 1 25.0 1.24921202 116.956382383485
14:32:19.1 33.0 29.8 1.22786188 1 25.0 1.24921202 115.883897025316
14:32:19.113 33.0 29.8 1.22780048 1 25.0 1.24921202 116.025780802891
14:32:19.210 33.0 29.8 1.22781790 1 25.0 1.24921202 115.630618694203
14:32:19.305 33.0 29.8 1.22779108 1 25.0 1.24921202 115.58334462816
14:32:19.401 33.0 29.8 1.22795952 1 25.0 1.24921202 116.245931325489
14:32:19.497 33.0 29.8 1.22785556 1 25.0 1.24921202 115.442930967281
14:32:21.655 33.0 29.8 1.22846616 1 25.0 1.25023008 116.522166640347
14:32:21.767 33.0 29.8 1.22849762 1 25.0 1.25023008 105.95786848287
14:32:21.862 33.0 29.8 1.22857476 1 25.0 1.25023008 103.833645108239
14:32:21.958 33.0 29.8 1.22855746 1 25.0 1.25023008 109.883344007191
14:32:22.55 33.0 29.8 1.22858894 1 25.0 1.25023008 110.628002597652
14:32:22.150 33.0 29.8 1.22868956 1 25.0 1.25023008 110.069812751421
14:32:22.246 33.0 29.8 1.22865974 1 25.0 1.25023008 111.818936223086
14:32:22.342 33.0 29.8 1.22868014 1 25.0 1.25023008 113.10442418069
14:32:22.358 33.0 29.8 1.22873210 1 25.0 1.25023008 111.730619837109
14:32:22.454 33.0 29.8 1.22869908 1 25.0 1.25023008 111.360824931553
14:32:22.549 33.0 29.8 1.22878874 1 25.0 1.25023008 110.803909958305
14:32:22.646 33.0 29.8 1.22876990 1 25.0 1.25023008 110.174433130497
14:32:22.741 33.0 29.8 1.22879970 1 25.0 1.25023008 110.556582864109
14:32:22.837 33.0 29.8 1.22888624 1 25.0 1.25023008 110.665615059772
14:32:22.933 33.0 29.8 1.22886586 1 25.0 1.25023008 109.503780127575
14:32:23.45 33.0 29.8 1.22893346 1 25.0 1.25023008 108.879850510709
14:32:23.141 33.0 29.8 1.22893512 1 25.0 1.25023008 110.68845500533
14:32:23.237 33.0 29.8 1.22887528 1 25.0 1.25023008 111.066282724489
14:32:23.333 33.0 29.8 1.22896338 1 25.0 1.25023008 110.476352028253
14:32:25.298 33.0 29.8 1.22942448 1 25.0 1.25108922 103.794232468415
14:32:25.394 33.0 29.8 1.22929072 1 25.0 1.25108922 103.038630877719
14:32:25.490 33.0 29.8 1.22951102 1 25.0 1.25108922 103.436750015188
14:32:25.586 33.0 29.8 1.22955978 1 25.0 1.25108922 104.286033530706
14:32:25.602 33.0 29.8 1.22949838 1 25.0 1.25108922 103.772167064742
14:32:25.698 33.0 29.8 1.22951734 1 25.0 1.25108922 104.524137137405
14:32:25.794 33.0 29.8 1.22955668 1 25.0 1.25108922 104.921238622476
14:32:25.890 33.0 29.8 1.22964000 1 25.0 1.25108922 104.537970311956
14:32:25.986 33.0 29.8 1.22965420 1 25.0 1.25108922 104.637150886307
14:32:26.81 33.0 29.8 1.22956288 1 25.0 1.25108922 104.036757304342
14:32:26.177 33.0 29.8 1.22962272 1 25.0 1.25108922 104.617493551804
14:32:26.289 33.0 29.8 1.22963690 1 25.0 1.25108922 104.474890278506
14:32:26.385 33.0 29.8 1.22968090 1 25.0 1.25108922 104.249199949863
14:32:26.481 33.0 29.8 1.22959434 1 25.0 1.25108922 103.898660068889
14:32:26.577 33.0 29.8 1.22973288 1 25.0 1.25108922 104.441170892147
14:32:26.673 33.0 29.8 1.22978794 1 25.0 1.25108922 104.501190625988
14:32:26.769 33.0 29.8 1.22981154 1 25.0 1.25108922 104.0998921047
14:32:26.865 33.0 29.8 1.22985566 1 25.0 1.25108922 104.189812903582
14:32:26.977 33.0 29.8 1.22981786 1 25.0 1.25108922 104.086071410274
14:32:27.72 33.0 29.8 1.22984778 1 25.0 1.25108922 104.868607287813
14:32:29.39 33.0 29.8 1.23014986 1 25.0 1.25182414 98.7828022919852
14:32:29.134 33.0 29.8 1.23026002 1 25.0 1.25182414 99.8675027526096
14:32:29.230 33.0 29.8 1.23018610 1 25.0 1.25182414 103.399753497289
14:32:29.326 33.0 29.8 1.23022068 1 25.0 1.25182414 103.447446119782
14:32:29.422 33.0 29.8 1.23029304 1 25.0 1.25182414 101.235945406325
14:32:29.534 33.0 29.8 1.23036706 1 25.0 1.25182414 100.730895881439
14:32:29.630 33.0 29.8 1.23031032 1 25.0 1.25182414 101.153703370796
14:32:29.725 33.0 29.8 1.23029780 1 25.0 1.25182414 99.9205000102799
14:32:29.821 33.0 29.8 1.23036074 1 25.0 1.25182414 100.219993777811
14:32:29.918 33.0 29.8 1.23042368 1 25.0 1.25182414 101.690697913398
14:32:30.13 33.0 29.8 1.23037958 1 25.0 1.25182414 102.343350911477
14:32:30.109 33.0 29.8 1.23044098 1 25.0 1.25182414 102.313352844097
14:32:30.221 33.0 29.8 1.23053538 1 25.0 1.25182414 100.961134828972
14:32:30.317 33.0 29.8 1.23047244 1 25.0 1.25182414 101.204338981789
14:32:30.413 33.0 29.8 1.23040640 1 25.0 1.25182414 101.222477269026
14:32:30.509 33.0 29.8 1.23048186 1 25.0 1.25182414 100.603658374541
14:32:30.605 33.0 29.8 1.23052598 1 25.0 1.25182414 100.331848891732
14:32:30.700 33.0 29.8 1.23052120 1 25.0 1.25182414 101.133093234735
14:32:30.796 33.0 29.8 1.23061716 1 25.0 1.25182414 102.322276044835
14:32:32.778 33.0 29.8 1.23080922 1 25.0 1.25253534 101.997318959549
14:32:32.874 33.0 29.8 1.23089420 1 25.0 1.25253534 93.6007111627414
14:32:32.970 33.0 29.8 1.23088312 1 25.0 1.25253534 90.5415500565867
14:32:33.66 33.0 29.8 1.23090672 1 25.0 1.25253534 100.194346788464
14:32:33.161 33.0 29.8 1.23098696 1 25.0 1.25253534 100.12717383739
14:32:33.257 33.0 29.8 1.23098696 1 25.0 1.25253534 95.695514398679
14:32:33.354 33.0 29.8 1.23101532 1 25.0 1.25253534 98.1165421334652
14:32:33.465 33.0 29.8 1.23097288 1 25.0 1.25253534 98.6834081178991
14:32:33.561 33.0 29.8 1.23110342 1 25.0 1.25253534 96.3250014770728
14:32:33.657 33.0 29.8 1.23107672 1 25.0 1.25253534 93.4244810775837
14:32:33.753 33.0 29.8 1.23115540 1 25.0 1.25253534 97.5114890770066
14:32:33.849 33.0 29.8 1.23112548 1 25.0 1.25253534 98.5733355122484
14:32:33.944 33.0 29.8 1.23114430 1 25.0 1.25253534 96.657665653084
14:32:34.41 33.0 29.8 1.23109878 1 25.0 1.25253534 97.0180412153948
14:32:34.57 33.0 29.8 1.23123562 1 25.0 1.25253534 97.0180412153948
14:32:34.152 33.0 29.8 1.23121678 1 25.0 1.25253534 97.8324685500991
14:32:34.248 33.0 29.8 1.23124980 1 25.0 1.25253534 97.2235290066462
14:32:34.344 33.0 29.8 1.23122466 1 25.0 1.25253534 96.1492254816295
14:32:34.440 33.0 29.8 1.23122466 1 25.0 1.25253534 97.173618295631
14:32:36.502 33.0 29.8 1.23135364 1 25.0 1.25306726 96.8631652619416
14:32:36.598 33.0 29.8 1.23154246 1 25.0 1.25306726 95.1502394439069
14:32:36.710 33.0 29.8 1.23157704 1 25.0 1.25306726 94.8421744718072
14:32:36.806 33.0 29.8 1.23146378 1 25.0 1.25306726 92.2308608751326
14:32:36.901 33.0 29.8 1.23142136 1 25.0 1.25306726 85.7706409898502
14:32:36.998 33.0 29.8 1.23144806 1 25.0 1.25306726 86.9406658948232
14:32:37.94 33.0 29.8 1.23154246 1 25.0 1.25306726 103.057917140052
14:32:37.189 33.0 29.8 1.23161804 1 25.0 1.25306726 83.9173447614936
14:32:37.285 33.0 29.8 1.23164952 1 25.0 1.25306726 70.1886768648075
14:32:37.397 33.0 29.8 1.23162592 1 25.0 1.25306726 86.1908311700078
14:32:37.493 33.0 29.8 1.23154724 1 25.0 1.25306726 96.0348607919323
14:32:37.589 33.0 29.8 1.23168254 1 25.0 1.25306726 85.6905127912778
14:32:37.685 33.0 29.8 1.23166048 1 25.0 1.25306726 93.6039574475545
14:32:37.781 33.0 29.8 1.23164166 1 25.0 1.25306726 92.406534554431
14:32:37.877 33.0 29.8 1.23173762 1 25.0 1.25306726 84.7073040860788
14:32:37.972 33.0 29.8 1.23175644 1 25.0 1.25306726 85.3077424594565
14:32:37.989 33.0 29.8 1.23176908 1 25.0 1.25306726 85.3077424594565
14:32:38.84 33.0 29.8 1.23175334 1 25.0 1.25306726 86.509616074353
14:32:38.181 33.0 29.8 1.23181152 1 25.0 1.25306726 86.6548730002032
14:32:38.276 33.0 29.8 1.23179734 1 25.0 1.25306726 87.0725244257226
14:32:40.339 33.0 29.8 1.23196732 1 25.0 1.2535944 87.6218473854324
14:32:40.434 33.0 29.8 1.23206962 1 25.0 1.2535944 86.8942122742513
14:32:40.531 33.0 29.8 1.23203660 1 25.0 1.2535944 85.488103856778
14:32:40.626 33.0 29.8 1.23210264 1 25.0 1.2535944 89.0884125930293
14:32:40.643 33.0 29.8 1.23205864 1 25.0 1.2535944 89.0884125930293
14:32:40.738 33.0 29.8 1.23223006 1 25.0 1.2535944 88.0071823158218
14:32:40.834 33.0 29.8 1.23211526 1 25.0 1.2535944 81.2279323209682
14:32:40.929 33.0 29.8 1.23213732 1 25.0 1.2535944 80.6418468603997
14:32:41.26 33.0 29.8 1.23221910 1 25.0 1.2535944 86.8354039876181
14:32:41.122 33.0 29.8 1.23226154 1 25.0 1.2535944 90.3289820192196
14:32:41.217 33.0 29.8 1.23214828 1 25.0 1.2535944 77.3103343961069
14:32:41.329 33.0 29.8 1.23215770 1 25.0 1.2535944 74.6117081792743
