main
	Init_MCU
		I2C2_Init
		UART1_Init
	Init_MPU
		MPU_I2C_Write
			I2C2_Start
				I2C2_Is_Idle
			I2C2_Wr
			I2C2_Stop
		MPU_I2C_Read
			I2C2_Start
				I2C2_Is_Idle
			I2C2_Wr
			I2C2_Repeated_Start
			I2C2_Rd
			I2C2_Stop
	MPU_I2C_Read_Int
		I2C2_Start
			I2C2_Is_Idle
		I2C2_Wr
		I2C2_Repeated_Start
		I2C2_Rd
		I2C2_Stop
	Extract_Readings
		int2double
			NRM3232
				RES032
				SETFUN32
				FIXSIGN32
		Div_32x32_FP
			SETFDZ32
			RES032
			SETFOV32
			SETFUN32
	Set_Offset
		Add_32x32_FP
			NRM4032
				SETFUN32
				FIXSIGN32
				SETFOV32
				RES032
			SETFOV32
	Convert_Readings_To_String
		FloatToStr
			strcpy
			Compare_Double
			Mul_32x32_FP
				RES032
				SETFOV32
				SETFUN32
			Div_8X8_U
	Print_Readings
		sprintf
			_doprntf
				isdigit
				Mul_16X16_U
				Compare_Double
				Equals_Double
				Div_16x16_S
					Div_16x16_S_L
				scale
					Div_8X8_S
					Mul_32x32_FP
						RES032
						SETFOV32
						SETFUN32
				Mul_32x32_FP
					RES032
					SETFOV32
					SETFUN32
				Div_32x32_FP
					SETFDZ32
					RES032
					SETFOV32
					SETFUN32
				double2longword
					SETIOV3224
				longword2double
					NRM4032
						SETFUN32
						FIXSIGN32
						SETFOV32
						RES032
				Sub_32x32_FP
					Add_32x32_FP
						NRM4032
							SETFUN32
							FIXSIGN32
							SETFOV32
							RES032
						SETFOV32
				Add_32x32_FP
					NRM4032
						SETFUN32
						FIXSIGN32
						SETFOV32
						RES032
					SETFOV32
				Div_32x32_U
				fround
					Div_8X8_U
					Mul_32x32_FP
						RES032
						SETFOV32
						SETFUN32
				double2longint
					SETIOV3224
		UART1_Write_Text
			UART1_Write
