12:25:56.898 24.1 51.5 1.26748740 1 28.5 1.28861714 76.7871696776121
12:25:56.994 24.1 51.5 1.26745426 1 28.5 1.28861714 77.1572204791739
12:25:57.393 24.1 51.5 1.26751888 1 28.5 1.28861714 77.1404928025776
12:25:57.505 24.1 51.5 1.26743544 1 28.5 1.28861714 77.3805844283519
12:25:57.600 24.1 51.5 1.26750780 1 28.5 1.28861714 76.9511511917989
12:25:57.696 24.1 51.5 1.26751410 1 28.5 1.28861714 76.7763283294544
12:25:57.792 24.1 51.5 1.26747786 1 28.5 1.28861714 77.0308225972113
12:25:57.888 24.1 51.5 1.26746058 1 28.5 1.28861714 77.7013309862755
12:25:57.984 24.1 51.5 1.26750624 1 28.5 1.28861714 77.2948072158665
12:25:58.95 24.1 51.5 1.26752674 1 28.5 1.28861714 77.3082449743385
12:25:58.191 24.1 51.5 1.26747478 1 28.5 1.28861714 77.1082799936655
12:25:58.287 24.1 51.5 1.26748740 1 28.5 1.28861714 77.3596239810068
12:25:58.383 24.1 51.5 1.26751566 1 28.5 1.28861714 77.4461825501968
12:25:58.479 24.1 51.5 1.26745272 1 28.5 1.28861714 76.7237742978164
12:25:58.576 24.1 51.5 1.26747786 1 28.5 1.28861714 77.1007507681735
12:25:58.671 24.1 51.5 1.26752508 1 28.5 1.28861714 76.6569803720377
12:26:0.843 24.1 51.7 1.26730478 1 28.5 1.28839684 77.1055877962101
12:26:0.939 24.1 51.7 1.26727498 1 28.5 1.28839684 77.7182773012325
12:26:0.967 24.1 51.7 1.26727020 1 28.5 1.28839684 77.5745785481397
12:26:1.354 24.1 51.7 1.26728284 1 28.5 1.28839684 77.065792783554
12:26:1.451 24.1 51.7 1.26732052 1 28.5 1.28839684 77.0269305219635
12:26:1.547 24.1 51.7 1.26733006 1 28.5 1.28839684 77.2768010724264
12:26:1.642 24.1 51.7 1.26733624 1 28.5 1.28839684 77.1218517162824
12:26:1.738 24.1 51.7 1.26729382 1 28.5 1.28839684 77.5249830577869
12:26:1.834 24.1 51.7 1.26733946 1 28.5 1.28839684 77.6670774384178
12:26:1.946 24.1 51.7 1.26732052 1 28.5 1.28839684 77.4881667649037
12:26:2.41 24.1 51.7 1.26732374 1 28.5 1.28839684 77.462369851178
12:26:2.137 24.1 51.7 1.26729226 1 28.5 1.28839684 77.1328854321763
12:26:2.233 24.1 51.7 1.26733946 1 28.5 1.28839684 77.2980124609183
12:26:2.329 24.1 51.7 1.26724660 1 28.5 1.28839684 76.9148950423167
12:26:2.424 24.1 51.7 1.26730478 1 28.5 1.28839684 76.6415847012629
12:26:2.520 24.1 51.7 1.26728594 1 28.5 1.28839684 77.1935453689621
12:26:4.502 24.1 52.5 1.26710188 1 28.5 1.28832602 77.5688072783101
12:26:4.598 24.1 52.5 1.26710976 1 28.5 1.28832602 77.3096789133729
12:26:4.694 24.1 52.5 1.26713956 1 28.5 1.28832602 76.6958706561359
12:26:4.805 24.1 52.5 1.26712226 1 28.5 1.28832602 77.2986370587853
12:26:4.901 24.1 52.5 1.26715064 1 28.5 1.28832602 77.0224879071775
12:26:4.997 24.1 52.5 1.26715696 1 28.5 1.28832602 77.2440229621528
12:26:5.397 24.1 52.5 1.26717270 1 28.5 1.28832602 76.5134355368942
12:26:5.492 24.1 52.5 1.26713956 1 28.5 1.28832602 77.0709651321811
12:26:5.588 24.1 52.5 1.26716316 1 28.5 1.28832602 78.0081902325543
12:26:5.683 24.1 52.5 1.26712858 1 28.5 1.28832602 78.2377031704772
12:26:5.731 24.1 52.5 1.26713800 1 28.5 1.28832602 78.006950726353
12:26:5.795 24.1 52.5 1.26715064 1 28.5 1.28832602 77.4632397845412
12:26:5.891 24.1 52.5 1.26720094 1 28.5 1.28832602 77.1093004735298
12:26:5.988 24.1 52.5 1.26712548 1 28.5 1.28832602 77.4690157634695
12:26:6.84 24.1 52.5 1.26707042 1 28.5 1.28832602 77.5590477638551
12:26:6.180 24.1 52.5 1.26716482 1 28.5 1.28832602 77.6962171869781
12:26:8.256 24.1 53.3 1.26701056 1 28.5 1.28817188 79.1486171630395
12:26:8.352 24.1 53.3 1.26700426 1 28.5 1.28817188 79.0077517065522
12:26:8.447 24.1 53.3 1.26687836 1 28.5 1.28817188 78.2756850392293
12:26:8.543 24.1 53.3 1.26680910 1 28.5 1.28817188 78.9645987140161
12:26:8.655 24.1 53.3 1.26677930 1 28.5 1.28817188 79.1885845948969
12:26:8.751 24.1 53.3 1.26670850 1 28.5 1.28817188 79.0113133867536
12:26:8.848 24.1 53.3 1.26673674 1 28.5 1.28817188 78.7699203096785
12:26:8.942 24.1 53.3 1.26676356 1 28.5 1.28817188 78.2363018146257
12:26:9.343 24.1 53.3 1.26673210 1 28.5 1.28817188 79.0139747477207
12:26:9.464 24.1 53.3 1.26678240 1 28.5 1.28817188 79.2341179201348
12:26:9.545 24.1 53.3 1.26668954 1 28.5 1.28817188 78.5573345296606
12:26:9.611 24.1 53.3 1.26673364 1 28.5 1.28817188 78.6329095200309
12:26:9.678 24.1 53.3 1.26671946 1 28.5 1.28817188 79.3966339812843
12:26:9.755 24.1 53.3 1.26674938 1 28.5 1.28817188 79.1211511724615
12:26:9.837 24.1 53.3 1.26672732 1 28.5 1.28817188 79.1180779170995
12:26:9.933 24.1 53.3 1.26672422 1 28.5 1.28817188 79.640307807703
12:26:12.10 24.1 53.8 1.26657630 1 28.5 1.2879814 82.9692938016609
12:26:12.106 24.1 53.8 1.26653064 1 28.5 1.2879814 83.0767134488545
12:26:12.202 24.1 53.8 1.26660454 1 28.5 1.2879814 83.407471051215
12:26:12.298 24.1 53.8 1.26651334 1 28.5 1.2879814 82.6756179580194
12:26:12.394 24.1 53.8 1.26656366 1 28.5 1.2879814 83.3199064160112
12:26:12.467 24.1 53.8 1.26656366 1 28.5 1.2879814 82.944491099165
12:26:12.557 24.1 53.8 1.26651490 1 28.5 1.2879814 83.1722449598587
12:26:12.634 24.1 53.8 1.26649284 1 28.5 1.2879814 82.8379702345654
12:26:12.716 24.1 53.8 1.26657784 1 28.5 1.2879814 83.8078218761923
12:26:12.805 24.1 53.8 1.26651490 1 28.5 1.2879814 83.32176375456
12:26:12.889 24.1 53.8 1.26656998 1 28.5 1.2879814 83.2962465426977
12:26:12.984 24.1 53.8 1.26651012 1 28.5 1.2879814 83.2785264966424
12:26:13.400 24.1 53.8 1.26644564 1 28.5 1.2879814 83.3197831432776
12:26:13.496 24.1 53.8 1.26652122 1 28.5 1.2879814 82.5242217931041
12:26:13.592 24.1 53.8 1.26647710 1 28.5 1.2879814 83.2923442817596
12:26:13.688 24.1 53.8 1.26649130 1 28.5 1.2879814 82.8216913901268
12:26:13.784 24.1 53.8 1.26645350 1 28.5 1.2879814 82.8601369573977
12:26:15.863 24.0 54.5 1.26637804 1 28.5 1.28777372 85.8678970947155
12:26:15.962 24.0 54.5 1.26637328 1 28.5 1.28777372 85.0589869496627
12:26:16.58 24.0 54.5 1.26636850 1 28.5 1.28777372 83.9503703192528
12:26:16.150 24.0 54.5 1.26638270 1 28.5 1.28777372 84.6099528676377
12:26:16.254 24.0 54.5 1.26638114 1 28.5 1.28777372 84.7734599038197
12:26:16.346 24.0 54.5 1.26633084 1 28.5 1.28777372 84.846350469307
12:26:16.451 24.0 54.5 1.26633704 1 28.5 1.28777372 85.3520736676121
12:26:16.545 24.0 54.5 1.26634658 1 28.5 1.28777372 84.8489341378683
12:26:16.657 24.0 54.5 1.26628984 1 28.5 1.28777372 85.1256624885419
12:26:16.750 24.0 54.5 1.26633870 1 28.5 1.28777372 84.9497599710122
12:26:16.858 24.0 54.5 1.26622688 1 28.5 1.28777372 84.8650981740577
12:26:16.951 24.0 54.5 1.26631188 1 28.5 1.28777372 84.1990092275058
12:26:17.60 24.0 54.5 1.26631666 1 28.5 1.28777372 85.1961222703692
12:26:17.155 24.0 54.5 1.26631976 1 28.5 1.28777372 84.4397108816788
12:26:17.442 24.0 54.5 1.26629150 1 28.5 1.28777372 84.6519443294137
12:26:17.565 24.0 54.5 1.26632606 1 28.5 1.28777372 85.1160306755594
12:26:17.666 24.0 54.5 1.26634812 1 28.5 1.28777372 84.5784620912806
12:26:19.733 23.9 54.8 1.26624584 1 28.5 1.28764474 84.7988605006404
12:26:19.851 23.9 54.8 1.26624740 1 28.5 1.28764474 84.5451928892843
12:26:19.956 23.9 54.8 1.26622534 1 28.5 1.28764474 84.7531610997741
12:26:20.72 23.9 54.8 1.26617348 1 28.5 1.28764474 84.0455829892949
12:26:20.178 23.9 54.8 1.26633870 1 28.5 1.28764474 84.2823441160037
12:26:20.297 23.9 54.8 1.26619864 1 28.5 1.28764474 84.3364794780805
12:26:20.403 23.9 54.8 1.26618922 1 28.5 1.28764474 84.982010248502
12:26:20.528 23.9 54.8 1.26617968 1 28.5 1.28764474 84.5899323721424
12:26:20.637 23.9 54.8 1.26623798 1 28.5 1.28764474 84.2723464495661
12:26:20.759 23.9 54.8 1.26615452 1 28.0 1.28764474 84.2253761586371
12:26:20.868 23.9 54.8 1.26610732 1 28.0 1.28764474 85.2125604424736
12:26:20.986 23.9 54.8 1.26617504 1 28.0 1.28764474 85.5676190384774
12:26:21.104 23.9 54.8 1.26606644 1 28.0 1.28764474 86.8236502385683
12:26:21.218 23.9 54.8 1.26622224 1 28.0 1.28764474 84.4752700116282
12:26:21.345 23.9 54.8 1.26617658 1 28.0 1.28764474 83.2197324198584
12:26:21.462 23.9 54.8 1.26613724 1 28.0 1.28764474 87.9212432592099
12:26:23.932 23.8 55.3 1.26605380 1 28.0 1.28748572 86.5618007824951
12:26:24.51 23.8 55.3 1.26607120 1 28.0 1.28748572 86.9235392057169
12:26:24.193 23.8 55.3 1.26607740 1 28.0 1.28748572 86.9235392057169
12:26:24.333 23.8 55.3 1.26616084 1 28.0 1.28748572 87.6127482425484
12:26:24.454 23.8 55.3 1.26614356 1 28.0 1.28748572 86.5152918198754
12:26:24.602 23.8 55.3 1.26603186 1 28.0 1.28748572 86.7863962797581
12:26:24.734 23.8 55.3 1.26608216 1 28.0 1.28748572 86.7349277139863
12:26:24.862 23.8 55.3 1.26602078 1 28.0 1.28748572 87.1013856246166
12:26:25.0 23.8 55.3 1.26593578 1 28.0 1.28748572 86.7558311854355
12:26:25.125 23.8 55.3 1.26598776 1 28.0 1.28748572 86.2955916633034
12:26:25.262 23.8 55.3 1.26604282 1 28.0 1.28748572 87.0226879424567
12:26:25.401 23.8 55.3 1.26597678 1 28.0 1.28748572 86.1982644518484
12:26:25.528 23.8 55.3 1.26597202 1 28.0 1.28748572 85.8667727911474
12:26:25.680 23.8 55.3 1.26601290 1 28.0 1.28748572 87.7763332182179
12:26:25.824 23.8 55.3 1.26593744 1 28.0 1.28748572 87.8160937266141
12:26:25.952 23.8 55.3 1.26601768 1 28.0 1.28748572 89.5299991485443
12:26:28.516 23.8 55.5 1.26594686 1 28.0 1.28736938 88.935260346543
12:26:28.668 23.8 55.5 1.26583672 1 28.0 1.28736938 88.8989512907186
12:26:28.817 23.8 55.5 1.26587450 1 28.0 1.28736938 88.2098900375304
12:26:28.954 23.8 55.5 1.26586974 1 28.0 1.28736938 89.0333741578542
12:26:29.104 23.8 55.5 1.26594686 1 28.0 1.28736938 89.6763989311638
12:26:29.253 23.8 55.5 1.26591694 1 28.0 1.28736938 88.4039273807377
12:26:29.392 23.8 55.5 1.26580990 1 28.0 1.28736938 89.2635462056579
12:26:29.546 23.8 55.5 1.26580048 1 28.0 1.28736938 89.1860681698489
12:26:29.701 23.8 55.5 1.26576436 1 28.0 1.28736938 89.3444095143989
12:26:29.852 23.8 55.5 1.26582098 1 28.0 1.28736938 88.7321002009118
12:26:29.992 23.8 55.5 1.26581944 1 28.0 1.28736938 89.3432070712237
12:26:30.149 23.8 55.5 1.26578796 1 28.0 1.28736938 89.1219519619419
12:26:30.304 23.8 55.5 1.26579260 1 28.0 1.28736938 88.4892242813161
12:26:30.446 23.8 55.5 1.26581622 1 28.0 1.28736938 89.0852928894419
12:26:30.601 23.8 55.5 1.26584614 1 28.0 1.28736938 89.3101825010196
12:26:30.761 23.8 55.5 1.26575804 1 28.0 1.28736938 88.9811482142061
12:26:30.902 23.8 55.5 1.26581622 1 28.0 1.28736938 89.6968691944564
12:26:34.125 23.7 55.4 1.26574076 1 28.0 1.28721034 90.9846261875451
12:26:34.288 23.7 55.4 1.26571870 1 28.0 1.28721034 90.7091102939341
12:26:34.476 23.7 55.4 1.26562274 1 28.0 1.28721034 90.3738491279149
12:26:34.653 23.7 55.4 1.26571548 1 28.0 1.28721034 90.5147605574335
12:26:34.823 23.7 55.4 1.26564158 1 28.0 1.28721034 90.9224256522894
12:26:34.990 23.7 55.4 1.26569188 1 28.0 1.28721034 90.8804510962798
12:26:35.146 23.7 55.4 1.26564944 1 28.0 1.28721034 90.8804510962798
12:26:35.316 23.7 55.4 1.26564788 1 28.0 1.28721034 90.8804510962798
12:26:35.488 23.7 55.4 1.26564634 1 28.0 1.28721034 91.0111948665328
12:26:35.659 23.7 55.4 1.26570762 1 28.0 1.28721034 90.8726458377036
12:26:35.818 23.7 55.4 1.26564944 1 28.0 1.28721034 90.4561574222118
12:26:35.989 23.7 55.4 1.26560854 1 28.0 1.28721034 90.0691221636327
12:26:36.163 23.7 55.4 1.26572334 1 28.0 1.28721034 90.2691993289814
12:26:36.335 23.7 55.4 1.26567304 1 28.0 1.28721034 91.1293637855249
12:26:36.507 23.7 55.4 1.26570296 1 28.0 1.28721034 91.5113520479126
12:26:36.669 23.7 55.4 1.26565254 1 28.0 1.28721034 90.6342689360995
12:26:40.227 23.7 55.7 1.26589966 1 28.0 1.2870704 92.6825826097793
12:26:40.410 23.7 55.7 1.26587760 1 28.0 1.2870704 92.3356686419993
12:26:40.594 23.7 55.7 1.26588548 1 28.0 1.2870704 92.6182703038662
12:26:40.783 23.7 55.7 1.26586032 1 28.0 1.2870704 92.686153583861
12:26:40.969 23.7 55.7 1.26591694 1 28.0 1.2870704 92.4390855555253
12:26:41.157 23.7 55.7 1.26588702 1 28.0 1.2870704 92.0540690353706
12:26:41.338 23.7 55.7 1.26591694 1 28.0 1.2870704 91.8332303649708
12:26:41.531 23.7 55.7 1.26588548 1 28.0 1.2870704 91.9970286251228
12:26:41.716 23.7 55.7 1.26592482 1 28.0 1.2870704 92.8368726325497
12:26:41.906 23.7 55.7 1.26593112 1 28.0 1.2870704 92.4377374533536
12:26:42.101 23.7 55.7 1.26593578 1 28.0 1.2870704 92.5721630036137
12:26:42.290 23.7 55.7 1.26591694 1 28.0 1.2870704 91.9508846502375
12:26:42.479 23.7 55.7 1.26586974 1 28.0 1.2870704 93.151117516946
12:26:42.665 23.7 55.7 1.26589966 1 28.0 1.2870704 92.5341836368554
12:26:42.856 23.7 55.7 1.26592172 1 28.0 1.2870704 92.3651483297786
12:26:43.45 23.7 55.7 1.26601768 1 28.0 1.2870704 93.0653446735218
12:26:46.624 23.6 55.9 1.27255106 1 28.0 1.28693032 94.4083705623307
12:26:46.828 23.6 55.9 1.27261878 1 28.0 1.28693032 94.2808573683708
12:26:47.28 23.6 55.9 1.27259040 1 28.0 1.28693032 94.6181836511189
12:26:47.227 23.6 55.9 1.27251018 1 28.0 1.28693032 93.8911638433364
12:26:47.426 23.6 55.9 1.27271950 1 28.0 1.28693032 94.6284121690649
12:26:47.628 23.6 55.9 1.27265490 1 28.0 1.28693032 94.268181881838
12:26:47.867 23.6 55.9 1.27261090 1 28.0 1.28693032 94.0686696041496
12:26:48.70 23.6 55.9 1.27263606 1 28.0 1.28693032 94.1467173312221
12:26:48.273 23.6 55.9 1.27259672 1 28.0 1.28693032 94.8845228838737
12:26:48.476 23.6 55.9 1.27276670 1 28.0 1.28693032 94.6252495165063
12:26:48.671 23.6 55.9 1.27268016 1 28.0 1.28693032 94.1838991852612
12:26:48.875 23.6 55.9 1.27259362 1 28.0 1.28693032 93.8237708607134
12:26:49.75 23.6 55.9 1.27270686 1 28.0 1.28693032 94.2906350164333
12:26:49.289 23.6 55.9 1.27265810 1 28.0 1.28693032 94.0455149479539
12:26:49.492 23.6 55.9 1.27271784 1 28.0 1.28693032 93.3992243472613
12:26:49.704 23.6 55.9 1.27276980 1 28.0 1.28693032 93.908267508468
12:26:49.910 23.6 55.9 1.27271318 1 28.0 1.28693032 94.719634992746
12:26:50.118 23.6 55.9 1.27280438 1 28.0 1.28693032 94.3907168848487
12:26:54.188 23.6 55.9 1.27392482 1 28.0 1.28675878 95.3388318149287
12:26:54.426 23.6 55.9 1.27388394 1 28.0 1.28675878 95.8004368978074
12:26:54.643 23.6 55.9 1.27387608 1 28.0 1.28675878 96.340935638964
12:26:54.860 23.6 55.9 1.27400982 1 28.0 1.28675878 96.2393152128942
12:26:55.78 23.6 55.9 1.27397048 1 28.0 1.28675878 96.7609414384245
12:26:55.294 23.6 55.9 1.27394688 1 28.0 1.28675878 95.8477000799892
12:26:55.514 23.6 55.9 1.27396882 1 28.0 1.28675878 96.9376456282936
12:26:55.770 23.6 55.9 1.27399086 1 28.0 1.28675878 95.0995544740599
12:26:55.995 23.6 55.9 1.27408064 1 28.0 1.28675878 96.029914289016
12:26:56.217 23.6 55.9 1.27400196 1 28.0 1.28675878 95.1533437879271
12:26:56.443 23.6 55.9 1.27403962 1 28.0 1.28675878 95.8987169615569
12:26:56.665 23.6 55.9 1.27404440 1 28.0 1.28675878 96.7518132956044
12:26:56.896 23.6 55.9 1.27401448 1 28.0 1.28675878 97.0173730884503
12:26:57.120 23.6 55.9 1.27404284 1 28.0 1.28675878 96.2862418275822
12:26:57.349 23.6 55.9 1.27411830 1 28.0 1.28675878 96.2791763254937
12:27:1.868 23.5 55.5 1.27373754 1 28.0 1.28655898 98.8310167022251
12:27:2.115 23.5 55.5 1.27373600 1 28.0 1.28655898 98.9040210474092
12:27:2.358 23.5 55.5 1.27376748 1 28.0 1.28655898 98.6252171628567
12:27:2.617 23.5 55.5 1.27378166 1 28.0 1.28655898 98.2994780934054
12:27:2.859 23.5 55.5 1.27372026 1 28.0 1.28655898 98.4407161241116
12:27:3.101 23.5 55.5 1.27375806 1 28.0 1.28655898 98.2142415141821
12:27:3.352 23.5 55.5 1.27377378 1 28.0 1.28655898 97.9913391436164
12:27:3.594 23.5 55.5 1.27381312 1 28.0 1.28655898 98.5655158688641
12:27:3.833 23.5 55.5 1.27378786 1 28.0 1.28655898 98.5436309184559
12:27:4.82 23.5 55.5 1.27385402 1 28.0 1.28655898 98.6066299832263
12:27:4.346 23.5 55.5 1.27381146 1 28.0 1.28655898 98.0598500232718
12:27:4.596 23.5 55.5 1.27375484 1 28.0 1.28655898 98.0791666416947
12:27:4.842 23.5 55.5 1.27381468 1 28.0 1.28655898 98.4971606997372
12:27:5.85 23.5 55.5 1.27379740 1 28.0 1.28655898 98.1796326177287
12:27:5.331 23.5 55.5 1.27380836 1 28.0 1.28655898 98.4473213740008
12:27:5.584 23.5 55.5 1.27384460 1 28.0 1.28655898 99.5056177992857
12:27:10.805 23.5 56.2 1.27399564 1 28.0 1.28645348 99.0738043944316
12:27:11.65 23.5 56.2 1.27400660 1 28.0 1.28645348 99.0528741248771
12:27:11.327 23.5 56.2 1.27408064 1 28.0 1.28645348 99.3854474829133
12:27:11.594 23.5 56.2 1.27403652 1 28.0 1.28645348 98.9952948810051
12:27:11.862 23.5 56.2 1.27402234 1 28.0 1.28645348 99.7885165998396
12:27:12.125 23.5 56.2 1.27408374 1 28.0 1.28645348 99.5326894998757
12:27:12.391 23.5 56.2 1.27414512 1 28.0 1.28645348 99.0769556747027
12:27:12.660 23.5 56.2 1.27414190 1 28.0 1.28645348 99.6785901160252
12:27:12.951 23.5 56.2 1.27409160 1 28.0 1.28645348 100.820826287711
12:27:13.225 23.5 56.2 1.27406490 1 28.0 1.28645348 101.136394137697
12:27:13.492 23.5 56.2 1.27405382 1 28.0 1.28645348 97.8350472478634
12:27:13.758 23.5 56.2 1.27409792 1 28.0 1.28645348 101.447754315512
12:27:14.49 23.5 56.2 1.27351726 1 28.0 1.28645348 100.49557450507
12:27:14.328 23.5 56.2 1.27382410 1 28.0 1.28645348 99.9935618683137
12:27:14.597 23.5 56.2 1.27374064 1 28.0 1.28645348 100.910996301267
12:27:14.877 23.5 56.2 1.27384614 1 28.0 1.28645348 101.168993953945
12:27:15.157 23.5 56.2 1.27405704 1 28.0 1.28645348 100.925247660481
12:27:15.426 23.5 56.2 1.27416872 1 28.0 1.28645348 101.259259383292
12:27:20.465 23.4 56.8 1.27355660 1 28.0 1.28629302 99.998222620944
12:27:20.755 23.4 56.8 1.27365100 1 28.0 1.28629302 100.665481526768
12:27:21.31 23.4 56.8 1.27365256 1 28.0 1.28629302 101.778475057139
12:27:21.314 23.4 56.8 1.27368880 1 28.0 1.28629302 101.870606940503
12:27:21.605 23.4 56.8 1.27371872 1 28.0 1.28629302 101.91822069378
12:27:21.882 23.4 56.8 1.27365732 1 28.0 1.28629302 101.722558481468
12:27:22.171 23.4 56.8 1.27369034 1 28.0 1.28629302 101.02278027529
12:27:22.473 23.4 56.8 1.27373600 1 28.0 1.28629302 100.743001601064
12:27:22.830 23.4 56.8 1.27371240 1 28.0 1.28629302 100.95940467687
12:27:23.133 23.4 56.8 1.27358962 1 28.0 1.28629302 100.874912619102
12:27:23.411 23.4 56.8 1.27361012 1 28.0 1.28629302 101.442752048974
12:27:23.706 23.4 56.8 1.27362264 1 28.0 1.28629302 101.306883290258
12:27:24.0 23.4 56.8 1.27357710 1 28.0 1.28629302 101.16458328677
12:27:24.286 23.4 56.8 1.27357542 1 28.0 1.28629302 101.837413044714
12:27:24.578 23.4 56.8 1.27354872 1 28.0 1.28629302 102.000709912066
12:27:24.858 23.4 56.8 1.27358962 1 28.0 1.28629302 104.359426619226
12:27:30.773 23.4 57.4 1.27275252 1 28.0 1.28617966 104.43483420971
12:27:31.71 23.4 57.4 1.27270210 1 28.0 1.28617966 103.878325694241
12:27:31.373 23.4 57.4 1.27272738 1 28.0 1.28617966 104.078617268598
12:27:31.669 23.4 57.4 1.27282334 1 28.0 1.28617966 103.917935080781
12:27:31.973 23.4 57.4 1.27279032 1 28.0 1.28617966 103.663130527997
12:27:32.279 23.4 57.4 1.27278078 1 28.0 1.28617966 104.700832380139
12:27:32.578 23.4 57.4 1.27277290 1 28.0 1.28617966 104.017832950638
12:27:32.891 23.4 57.4 1.27278400 1 28.0 1.28617966 102.835753030225
12:27:33.185 23.4 57.4 1.27285326 1 28.0 1.28617966 102.543184770004
12:27:33.492 23.4 57.4 1.27284216 1 28.0 1.28617966 102.737923150817
12:27:33.815 23.4 57.4 1.27285158 1 28.0 1.28617966 103.912467895268
12:27:34.155 23.4 57.4 1.27288938 1 28.0 1.28617966 106.032323948795
12:27:34.460 23.4 57.4 1.27290666 1 28.0 1.28617966 106.92868619515
12:27:34.786 23.4 57.4 1.27278400 1 28.0 1.28617966 105.766838189867
12:27:35.100 23.4 57.4 1.27286422 1 28.0 1.28617966 104.682021356214
12:27:41.861 23.3 57.6 1.27166832 1 28.0 1.28600978 110.951940755718
12:27:42.183 23.3 57.6 1.27176272 1 28.0 1.28600978 106.121612410679
12:27:42.521 23.3 57.6 1.27171076 1 28.0 1.28600978 107.251477436451
12:27:42.846 23.3 57.6 1.27166986 1 28.0 1.28600978 105.67412606779
12:27:43.192 23.3 57.6 1.27172338 1 28.0 1.28600978 106.260694537421
12:27:43.520 23.3 57.6 1.27172030 1 28.0 1.28600978 106.707867624239
12:27:43.872 23.3 57.6 1.27172338 1 28.0 1.28600978 107.900847617626
12:27:44.215 23.3 57.6 1.27175962 1 28.0 1.28600978 107.118074682291
12:27:44.540 23.3 57.6 1.27181304 1 28.0 1.28600978 106.786352578314
12:27:44.878 23.3 57.6 1.27178478 1 28.0 1.28600978 107.133341143715
12:27:45.204 23.3 57.6 1.27175962 1 28.0 1.28600978 106.861758902014
12:27:45.551 23.3 57.6 1.27177370 1 28.0 1.28600978 104.788736274148
12:27:45.878 23.3 57.6 1.27173126 1 28.0 1.28600978 106.352267233253
12:27:46.221 23.3 57.6 1.27166986 1 28.0 1.28600978 107.806950613287
12:27:46.560 23.3 57.6 1.27170766 1 28.0 1.28600978 107.125575125449
12:27:53.732 23.3 57.6 1.27193106 1 28.0 1.28585876 106.257737262967
12:27:54.120 23.3 57.6 1.27184296 1 28.0 1.28585876 106.257737262967
12:27:54.477 23.3 57.6 1.27218760 1 28.0 1.28585876 106.257737262967
12:27:54.812 23.3 57.6 1.27237796 1 28.0 1.28585876 106.257737262967
12:27:55.161 23.3 57.6 1.27152514 1 28.0 1.28585876 106.257737262967
12:27:55.511 23.3 57.6 1.27128590 1 28.0 1.28585876 106.257737262967
12:27:55.852 23.3 57.6 1.27120102 1 28.0 1.28585876 106.257737262967
12:27:56.205 23.3 57.6 1.27087676 1 28.0 1.28585876 106.46256119638
12:27:56.556 23.3 57.6 1.27131426 1 28.0 1.28585876 106.2527197264
12:27:56.928 23.3 57.6 1.27165258 1 28.0 1.28585876 108.356676309555
12:27:57.287 23.3 57.6 1.27161014 1 28.0 1.28585876 107.967558223356
12:27:57.634 23.3 57.6 1.27179730 1 28.0 1.28585876 106.695459518293
12:27:57.972 23.3 57.6 1.27150620 1 28.0 1.28585876 112.809632257209
12:27:58.322 23.3 57.6 1.27101528 1 28.0 1.28585876 118.105304063389
12:27:58.667 23.3 57.6 1.27127970 1 28.0 1.28585876 113.374576258586
12:27:59.24 23.3 57.6 1.27110184 1 28.0 1.28585876 111.477335973688
12:27:59.378 23.3 57.6 1.27107036 1 28.0 1.28585876 110.693090817749
12:28:6.520 23.3 57.3 1.26338828 1 28.0 1.28573442 110.726345134566
12:28:6.891 23.3 57.3 1.26350152 1 28.0 1.28573442 110.108075984884
12:28:7.241 23.3 57.3 1.26345276 1 28.0 1.28573442 110.692209247846
12:28:7.608 23.3 57.3 1.26355028 1 28.0 1.28573442 110.962418830332
12:28:7.969 23.3 57.3 1.26396572 1 28.0 1.28573442 110.718243396352
12:28:8.319 23.3 57.3 1.26391852 1 28.0 1.28573442 110.291544300829
12:28:8.682 23.3 57.3 1.26382410 1 28.0 1.28573442 109.709418982892
12:28:9.47 23.3 57.3 1.26397204 1 28.0 1.28573442 110.298339881154
12:28:9.402 23.3 57.3 1.26383674 1 28.0 1.28573442 110.137319107452
12:28:9.770 23.3 57.3 1.26371086 1 28.0 1.28573442 109.969161950914
12:28:10.150 23.3 57.3 1.26375484 1 28.0 1.28573442 109.84095404217
12:28:10.513 23.3 57.3 1.26375020 1 28.0 1.28573442 109.711408579666
12:28:10.864 23.3 57.3 1.26377214 1 28.0 1.28573442 110.281032874152
12:28:11.233 23.3 57.3 1.26376904 1 28.0 1.28573442 109.822592462198
12:28:11.608 23.3 57.3 1.26380360 1 28.0 1.28573442 110.209066073678
12:28:19.456 23.2 56.9 1.26374542 1 28.0 1.28555978 109.955174878189
12:28:19.848 23.2 56.9 1.26368248 1 28.0 1.28555978 110.306513199901
12:28:20.304 23.2 56.9 1.26363218 1 28.0 1.28555978 108.406197606681
12:28:20.704 23.2 56.9 1.26368094 1 28.0 1.28555978 109.081385929856
12:28:21.97 23.2 56.9 1.26368558 1 28.0 1.28555978 109.845183542477
12:28:21.495 23.2 56.9 1.26361168 1 28.0 1.28555978 109.734467334173
12:28:21.893 23.2 56.9 1.26354564 1 28.0 1.28555978 110.122044060042
12:28:22.284 23.2 56.9 1.26359594 1 28.0 1.28555978 110.10540855235
12:28:22.672 23.2 56.9 1.26355028 1 28.0 1.28555978 108.832127427599
12:28:23.74 23.2 56.9 1.26355028 1 28.0 1.28555978 109.016982727666
12:28:23.484 23.2 56.9 1.26365412 1 28.0 1.28555978 109.185327155312
12:28:23.884 23.2 56.9 1.26369190 1 28.0 1.28555978 109.567659029241
12:28:24.286 23.2 56.9 1.26358808 1 28.0 1.28555978 109.542064360875
12:28:24.684 23.2 56.9 1.26360858 1 28.0 1.28555978 108.729275346898
12:28:25.86 23.2 56.9 1.26355970 1 28.0 1.28555978 108.828295868537
12:28:32.773 23.1 56.1 1.26608694 1 28.0 1.28541494 109.39647083318
12:28:33.204 23.1 56.1 1.26615608 1 28.0 1.28541494 109.119999922653
12:28:33.602 23.1 56.1 1.26600658 1 28.0 1.28541494 109.116531568386
12:28:34.9 23.1 56.1 1.26609480 1 28.0 1.28541494 109.222385255864
12:28:34.413 23.1 56.1 1.26614988 1 28.0 1.28541494 109.433370747854
12:28:34.821 23.1 56.1 1.26630092 1 28.0 1.28541494 108.47657979701
12:28:35.237 23.1 56.1 1.26640952 1 28.0 1.28541494 108.442953767061
12:28:35.649 23.1 56.1 1.26648974 1 28.0 1.28541494 109.55627653848
12:28:36.58 23.1 56.1 1.26635444 1 28.0 1.28541494 108.762415195523
12:28:36.551 23.1 56.1 1.26571548 1 28.0 1.28541494 111.473542698086
12:28:36.976 23.1 56.1 1.26566208 1 28.0 1.28541494 111.276045873649
12:28:37.397 23.1 56.1 1.26576746 1 28.0 1.28541494 111.071945852196
12:28:37.824 23.1 56.1 1.26571394 1 28.0 1.28541494 111.529605097704
12:28:38.250 23.1 56.1 1.26615930 1 27.5 1.28541494 111.544761530087
12:28:38.678 23.1 56.1 1.26619542 1 27.5 1.28541494 111.899576501761
12:28:39.106 23.1 56.1 1.26609158 1 27.5 1.28541494 111.993928177254
12:28:47.381 23.1 56.4 1.26351726 1 27.5 1.285267 113.201832024936
12:28:47.822 23.1 56.4 1.26320732 1 27.5 1.285267 113.037956687532
12:28:48.257 23.1 56.4 1.26321828 1 27.5 1.285267 113.870806349244
12:28:48.689 23.1 56.4 1.26406490 1 27.5 1.285267 113.481407715436
12:28:49.129 23.1 56.4 1.26366984 1 27.5 1.285267 111.801334202288
12:28:49.582 23.1 56.4 1.26387764 1 27.5 1.285267 112.914902570118
12:28:50.16 23.1 56.4 1.26421904 1 27.5 1.285267 112.694879240568
12:28:50.458 23.1 56.4 1.26319944 1 27.5 1.285267 113.399019705771
12:28:50.895 23.1 56.4 1.26307190 1 27.5 1.285267 113.328631111488
12:28:51.333 23.1 56.4 1.26311124 1 27.5 1.285267 113.024704064988
12:28:51.793 23.1 56.4 1.26287520 1 27.5 1.285267 112.532821206912
12:28:52.233 23.1 56.4 1.26317584 1 27.5 1.285267 111.856185949902
12:28:52.672 23.1 56.4 1.26356756 1 27.5 1.285267 112.045767081094
12:28:53.142 23.1 56.4 1.26340080 1 27.5 1.285267 112.508248225831
12:28:53.583 23.1 56.4 1.26335680 1 27.5 1.285267 112.782717248041
12:28:54.26 23.1 56.4 1.26327490 1 27.5 1.285267 113.099115692446
12:28:54.473 23.1 56.4 1.26285636 1 27.5 1.285267 113.173854194308
12:29:3.467 23.1 57.1 1.30341970 1 27.5 1.28513014 113.130198978925
12:29:3.916 23.1 57.1 1.30592478 1 27.5 1.28513014 113.130198978925
12:29:4.383 23.1 57.1 1.30549204 1 27.5 1.28513014 112.923317530505
12:29:4.832 23.1 57.1 1.30268800 1 27.5 1.28513014 112.108212774868
12:29:5.277 23.1 57.1 1.30198776 1 27.5 1.28513014 112.306490856677
12:29:5.735 23.1 57.1 1.30125762 1 27.5 1.28513014 112.52790392092
12:29:6.210 23.1 57.1 1.29976904 1 27.5 1.28513014 112.339582241366
12:29:6.658 23.1 57.1 1.30219066 1 27.5 1.28513014 114.623751743763
12:29:7.107 23.1 57.1 1.30311286 1 27.5 1.28513014 113.898648492105
12:29:7.573 23.1 57.1 1.30365408 1 27.5 1.28513014 114.601553292237
12:29:8.21 23.1 57.1 1.30446446 1 27.5 1.28513014 113.738692270713
12:29:8.470 23.1 57.1 1.30133938 1 27.5 1.28513014 114.724230529511
12:29:8.924 23.1 57.1 1.29850388 1 27.5 1.28513014 112.997857581328
12:29:9.386 23.1 57.1 1.29838110 1 27.5 1.28513014 113.554858675764
12:29:9.832 23.1 57.1 1.29779888 1 27.5 1.28513014 117.157937597166
12:29:10.286 23.1 57.1 1.29978632 1 27.5 1.28513014 117.032764049931
12:29:10.731 23.1 57.1 1.30310810 1 27.5 1.28513014 116.455767790542
12:29:19.570 23.0 57.7 1.26348888 1 27.5 1.28493344 115.089789504035
12:29:20.26 23.0 57.7 1.26344646 1 27.5 1.28493344 116.507220839509
12:29:20.488 23.0 57.7 1.26368558 1 27.5 1.28493344 116.517114766954
12:29:20.953 23.0 57.7 1.26365256 1 27.5 1.28493344 115.48048672101
12:29:21.418 23.0 57.7 1.26378786 1 27.5 1.28493344 115.718692800696
12:29:21.882 23.0 57.7 1.26384770 1 27.5 1.28493344 115.279250329596
12:29:22.376 23.0 57.7 1.26393116 1 27.5 1.28493344 115.284906233904
12:29:22.849 23.0 57.7 1.26387132 1 27.5 1.28493344 115.979362073249
12:29:23.324 23.0 57.7 1.26388704 1 27.5 1.28493344 114.786892798136
12:29:23.791 23.0 57.7 1.26388394 1 27.5 1.28493344 119.8625307103
12:29:24.277 23.0 57.7 1.26387608 1 27.5 1.28493344 112.526809873624
12:29:24.748 23.0 57.7 1.26387764 1 27.5 1.28493344 117.150835250638
12:29:25.213 23.0 57.7 1.26370764 1 27.5 1.28493344 118.272918616503
12:29:25.681 23.0 57.7 1.26378166 1 27.5 1.28493344 116.563573323374
12:29:26.167 23.0 57.7 1.26365102 1 27.5 1.28493344 116.322841590047
12:29:35.733 23.1 58.0 1.27285004 1 27.5 1.28481388 118.261209905116
12:29:36.222 23.1 58.0 1.27291930 1 27.5 1.28481388 117.762565002858
12:29:36.698 23.1 58.0 1.27300894 1 27.5 1.28481388 117.253900741474
12:29:37.181 23.1 58.0 1.27290832 1 27.5 1.28481388 115.583073969777
12:29:37.659 23.1 58.0 1.27268016 1 27.5 1.28481388 117.545364105416
12:29:38.146 23.1 58.0 1.27258098 1 27.5 1.28481388 117.201385302242
12:29:38.634 23.1 58.0 1.27277768 1 27.5 1.28481388 116.946918434786
12:29:39.119 23.1 58.0 1.27292406 1 27.5 1.28481388 117.815391815013
12:29:39.602 23.1 58.0 1.27313482 1 27.5 1.28481388 119.40305214208
12:29:40.101 23.1 58.0 1.27307188 1 27.5 1.28481388 116.236634955019
12:29:40.578 23.1 58.0 1.27295708 1 27.5 1.28481388 120.166734867402
12:29:41.57 23.1 58.0 1.27281224 1 27.5 1.28481388 115.019094140493
12:29:41.552 23.1 58.0 1.27246296 1 27.5 1.28481388 113.806058000583
12:29:42.44 23.1 58.0 1.27234650 1 27.5 1.28481388 115.799025056106
12:29:42.543 23.1 58.0 1.27226150 1 27.5 1.28481388 120.031093795048
12:29:51.915 23.2 58.2 1.27297748 1 27.5 1.284688 120.47372853311
12:29:52.428 23.2 58.2 1.27300584 1 27.5 1.284688 119.987356891497
12:29:52.928 23.2 58.2 1.27306402 1 27.5 1.284688 120.495290368831
12:29:53.526 23.2 58.2 1.27306246 1 27.5 1.284688 118.586553804802
12:29:54.36 23.2 58.2 1.27310336 1 27.5 1.284688 122.037345324627
12:29:54.553 23.2 58.2 1.27307356 1 27.5 1.284688 122.998696606703
12:29:55.72 23.2 58.2 1.27298070 1 27.5 1.284688 122.800113034498
12:29:55.592 23.2 58.2 1.27297282 1 27.5 1.284688 121.2382928836
12:29:56.119 23.2 58.2 1.27295554 1 27.5 1.284688 120.763340671132
12:29:56.626 23.2 58.2 1.27289570 1 27.5 1.284688 121.629554052424
12:29:57.143 23.2 58.2 1.27296340 1 27.5 1.284688 120.899311520752
12:29:57.672 23.2 58.2 1.27293658 1 27.5 1.284688 121.244996237282
12:29:58.183 23.2 58.2 1.27305150 1 27.5 1.284688 121.086562165979
12:29:58.733 23.2 58.2 1.27312076 1 27.5 1.284688 121.121177440169
12:29:59.251 23.2 58.2 1.27308608 1 27.5 1.284688 120.990755279918
12:29:59.793 23.2 58.2 1.27309548 1 27.5 1.284688 121.253134071942
12:30:0.321 23.2 58.2 1.27310180 1 27.5 1.284688 121.159313826206
12:30:0.860 23.2 58.2 1.27316164 1 27.5 1.284688 120.97134086307
12:30:1.406 23.2 58.2 1.27306402 1 27.5 1.284688 121.637485360112
