13:59:24.290 27.8 36.9 1.24982416 1 26.0 1.26772654 76.6606387209674
13:59:24.401 27.8 36.9 1.24985718 1 26.0 1.26772654 76.6779818072352
13:59:24.497 27.8 36.9 1.24984300 1 26.0 1.26772654 76.5961153618364
13:59:24.593 27.8 36.9 1.24978316 1 26.0 1.26772654 74.0940799881133
13:59:24.992 27.8 36.9 1.24975168 1 26.0 1.26772654 77.1180866559654
13:59:25.87 27.8 36.9 1.24977220 1 26.0 1.26772654 76.7114127402726
13:59:25.184 27.8 36.9 1.24986660 1 26.0 1.26772654 77.4533089477476
13:59:25.280 27.8 36.9 1.24977530 1 26.5 1.26772654 76.2493429202121
13:59:25.392 27.8 36.9 1.24980056 1 26.5 1.26772654 75.8990323732429
13:59:25.488 27.8 36.9 1.24968874 1 26.5 1.26772654 76.0948669524933
13:59:25.583 27.8 36.9 1.24972344 1 26.5 1.26772654 77.5169022714162
13:59:25.679 27.8 36.9 1.24968410 1 26.5 1.26772654 77.2528599663101
13:59:25.775 27.8 36.9 1.24964476 1 26.5 1.26772654 77.2652647568558
13:59:25.871 27.8 36.9 1.24964940 1 26.5 1.26772654 76.4822976640433
13:59:25.966 27.8 36.9 1.24965108 1 26.0 1.26772654 76.6393737969831
13:59:26.14 27.8 36.9 1.24969196 1 26.0 1.26772654 76.1377644259533
13:59:28.43 27.8 36.8 1.24979890 1 26.5 1.2678603 78.5328099832991
13:59:28.140 27.8 36.8 1.24990284 1 26.5 1.2678603 78.5764988519349
13:59:28.252 27.8 36.8 1.24986660 1 26.5 1.2678603 79.1248207707331
13:59:28.347 27.8 36.8 1.24985242 1 26.5 1.2678603 78.8620700384566
13:59:28.443 27.8 36.8 1.24982882 1 26.5 1.2678603 78.2906211975171
13:59:28.539 27.8 36.8 1.24979424 1 26.5 1.2678603 78.7255807452136
13:59:28.635 27.8 36.8 1.24985874 1 26.5 1.2678603 78.6570104012946
13:59:29.34 27.8 36.8 1.24979424 1 26.5 1.2678603 78.8808632150422
13:59:29.130 27.8 36.8 1.24976278 1 26.5 1.2678603 78.5471728562853
13:59:29.174 27.8 36.8 1.24985396 1 26.5 1.2678603 78.2530217413059
13:59:29.241 27.8 36.8 1.24982726 1 26.5 1.2678603 78.3272182406592
13:59:29.337 27.8 36.8 1.24968410 1 26.5 1.2678603 78.6792235673721
13:59:29.433 27.8 36.8 1.24974858 1 26.5 1.2678603 79.095846753163
13:59:29.529 27.8 36.8 1.24973596 1 26.5 1.2678603 78.431453560472
13:59:29.625 27.8 36.8 1.24976588 1 26.5 1.2678603 78.5489020078968
13:59:29.722 27.8 36.8 1.24972976 1 26.5 1.2678603 78.8261659864435
13:59:29.833 27.8 36.8 1.24961960 1 26.5 1.2678603 78.7942776801815
13:59:31.894 27.9 37.0 1.25004756 1 26.0 1.26797522 78.9709522704279
13:59:31.990 27.9 37.0 1.24995626 1 26.0 1.26797522 78.7311703311677
13:59:32.102 27.9 37.0 1.24996102 1 26.0 1.26797522 79.159285854882
13:59:32.197 27.9 37.0 1.24996412 1 26.0 1.26797522 78.3763033720864
13:59:32.293 27.9 37.0 1.24987448 1 26.0 1.26797522 78.3389575550067
13:59:32.389 27.9 37.0 1.25006962 1 26.0 1.26797522 77.600492425384
13:59:32.485 27.9 37.0 1.24989808 1 26.0 1.26797522 78.398761340175
13:59:32.581 27.9 37.0 1.24983358 1 26.0 1.26797522 79.1355176065672
13:59:32.981 27.9 37.0 1.24989330 1 26.0 1.26797522 78.1245775539604
13:59:33.69 27.9 37.0 1.24988866 1 26.0 1.26797522 78.1418040891894
13:59:33.131 27.9 37.0 1.24984776 1 26.0 1.26797522 79.3065479631319
13:59:33.192 27.9 37.0 1.24983990 1 26.0 1.26797522 79.0691155719491
13:59:33.284 27.9 37.0 1.24979270 1 26.0 1.26797522 78.3635740998683
13:59:33.380 27.9 37.0 1.24990284 1 26.5 1.26797522 79.3141295840275
13:59:33.475 27.9 37.0 1.24977530 1 26.5 1.26797522 79.077559104768
13:59:33.571 27.9 37.0 1.24987924 1 26.5 1.26797522 78.718344758376
13:59:35.648 27.9 37.4 1.25028836 1 26.5 1.26804602 83.9104760007052
13:59:35.745 27.9 37.4 1.25018608 1 26.0 1.26804602 86.3255037931375
13:59:35.840 27.9 37.4 1.25021278 1 26.0 1.26804602 83.2489140372715
13:59:35.911 27.9 37.4 1.24970614 1 26.0 1.26804602 82.9550694412452
13:59:35.983 27.9 37.4 1.24944806 1 26.0 1.26804602 80.0201083408072
13:59:36.56 27.9 37.4 1.24909710 1 26.0 1.26804602 81.7102574602945
13:59:36.144 27.9 37.4 1.24905622 1 26.0 1.26804602 81.9838662267403
13:59:36.240 27.9 37.4 1.24913644 1 26.0 1.26804602 83.2643178514977
13:59:36.335 27.9 37.4 1.24903738 1 26.5 1.26804602 82.4252349806903
13:59:36.431 27.9 37.4 1.24907828 1 26.5 1.26804602 80.5478028719788
13:59:36.543 27.9 37.4 1.24908460 1 26.5 1.26804602 82.7032756248184
13:59:36.639 27.9 37.4 1.24897754 1 26.5 1.26804602 82.6109897152762
13:59:37.38 27.9 37.4 1.24903894 1 26.5 1.26804602 81.7083988671481
13:59:37.140 27.9 37.4 1.24906098 1 26.5 1.26804602 82.2929649783934
13:59:37.230 27.9 37.4 1.24892724 1 26.5 1.26804602 82.1819536723022
13:59:37.326 27.9 37.4 1.24902164 1 26.0 1.26804602 82.0036770868757
13:59:37.422 27.9 37.4 1.24898850 1 26.0 1.26804602 82.4773162719444
13:59:39.499 27.9 37.3 1.24924660 1 26.0 1.26816714 82.731124068167
13:59:39.594 27.9 37.3 1.24925446 1 26.0 1.26816714 82.8895956210216
13:59:39.690 27.9 37.3 1.24916946 1 26.0 1.26816714 82.648475849503
13:59:39.775 27.9 37.3 1.24920880 1 26.0 1.26816714 81.9146029819071
13:59:39.860 27.9 37.3 1.24912704 1 26.0 1.26816714 82.6121346777359
13:59:39.947 27.9 37.3 1.24906564 1 26.0 1.26816714 83.7041578452351
13:59:40.34 27.9 37.3 1.24913012 1 26.0 1.26816714 82.8864879391739
13:59:40.123 27.9 37.3 1.24914908 1 26.0 1.26816714 82.3109005875642
13:59:40.213 27.9 37.3 1.24911440 1 26.0 1.26816714 82.3734522545459
13:59:40.303 27.9 37.3 1.24908614 1 26.5 1.26816714 82.3376596600221
13:59:40.395 27.9 37.3 1.24913012 1 26.5 1.26816714 82.5213237179573
13:59:40.489 27.9 37.3 1.24908924 1 26.5 1.26816714 82.4557770584751
13:59:40.585 27.9 37.3 1.24901844 1 26.5 1.26816714 83.3519937614712
13:59:40.681 27.9 37.3 1.24913644 1 26.5 1.26816714 82.7296084123657
13:59:41.81 27.9 37.3 1.24904526 1 26.5 1.26816714 82.4963690350128
13:59:41.211 27.9 37.3 1.24906886 1 26.5 1.26816714 82.874329335876
13:59:43.297 27.8 36.2 1.24946380 1 26.5 1.26824582 82.7178975631831
13:59:43.400 27.8 36.2 1.24930168 1 26.5 1.26824582 82.5162474373564
13:59:43.502 27.8 36.2 1.24925292 1 26.5 1.26824582 82.0375502404383
13:59:43.606 27.8 36.2 1.24917734 1 26.5 1.26824582 81.9668321285073
13:59:43.710 27.8 36.2 1.24923408 1 26.5 1.26824582 82.3324296421548
13:59:43.812 27.8 36.2 1.24924814 1 26.5 1.26824582 82.5673300107278
13:59:43.915 27.8 36.2 1.24917900 1 26.5 1.26824582 82.3137485006229
13:59:44.18 27.8 36.2 1.24920416 1 26.0 1.26824582 82.0773018698222
13:59:44.122 27.8 36.2 1.24904680 1 26.0 1.26824582 82.2077905279216
13:59:44.227 27.8 36.2 1.24882806 1 26.0 1.26824582 82.3410984538075
13:59:44.334 27.8 36.2 1.24826788 1 26.0 1.26824582 82.6521645858848
13:59:44.440 27.8 36.2 1.24948108 1 26.0 1.26824582 82.2277839986904
13:59:44.547 27.8 36.2 1.24997830 1 26.0 1.26824582 82.566588394436
13:59:44.654 27.8 36.2 1.24999726 1 26.0 1.26824582 82.2951839274211
13:59:44.762 27.8 36.2 1.24998308 1 26.5 1.26824582 82.3049138788192
13:59:44.872 27.8 36.2 1.24963998 1 26.5 1.26824582 81.9820605924503
13:59:44.978 27.8 36.2 1.24950314 1 26.5 1.26824582 82.3699405096904
13:59:45.123 27.8 36.2 1.24955034 1 26.5 1.26824582 82.7447901431463
13:59:47.157 27.7 35.6 1.24995626 1 26.5 1.268345 87.1669555362651
13:59:47.277 27.7 35.6 1.24989808 1 26.5 1.268345 84.762821713389
13:59:47.394 27.7 35.6 1.24993586 1 26.5 1.268345 83.9406069827575
13:59:47.513 27.7 35.6 1.24992478 1 26.5 1.268345 85.3521005206807
13:59:47.633 27.7 35.6 1.24992478 1 26.5 1.268345 86.0192137536926
13:59:47.751 27.7 35.6 1.24990440 1 26.5 1.268345 86.6539378074058
13:59:47.869 27.7 35.6 1.24983358 1 26.5 1.268345 86.0425314512824
13:59:47.986 27.7 35.6 1.24978160 1 26.5 1.268345 84.8919028898649
13:59:48.106 27.7 35.6 1.24991692 1 26.5 1.268345 85.1851243209813
13:59:48.230 27.7 35.6 1.24981462 1 26.5 1.268345 86.0340853225692
13:59:48.352 27.7 35.6 1.24983668 1 26.5 1.268345 85.926424921096
13:59:48.473 27.7 35.6 1.24965894 1 26.5 1.268345 85.193975031041
13:59:48.596 27.7 35.6 1.24979102 1 26.5 1.268345 84.8946141167019
13:59:48.718 27.7 35.6 1.24976742 1 26.5 1.268345 86.6263245523487
13:59:48.840 27.7 35.6 1.24972976 1 26.5 1.268345 85.7749364212533
13:59:48.963 27.7 35.6 1.24973130 1 26.5 1.268345 85.8088242363445
13:59:51.494 27.6 35.4 1.24999094 1 26.0 1.26853848 84.4996138768024
13:59:51.627 27.6 35.4 1.24994528 1 26.0 1.26853848 85.8119744481387
13:59:51.758 27.6 35.4 1.25003660 1 26.5 1.26853848 84.9895222211503
13:59:51.888 27.6 35.4 1.24996412 1 26.5 1.26853848 85.5072659785004
13:59:52.19 27.6 35.4 1.24988080 1 26.5 1.26853848 85.1069642608535
13:59:52.152 27.6 35.4 1.24990118 1 26.5 1.26853848 85.0469615743311
13:59:52.289 27.6 35.4 1.24985874 1 26.5 1.26853848 84.928125535876
13:59:52.423 27.6 35.4 1.24992322 1 26.5 1.26853848 84.8490172276587
13:59:52.559 27.6 35.4 1.24993264 1 26.5 1.26853848 85.0214297158331
13:59:52.694 27.6 35.4 1.24986506 1 26.5 1.26853848 85.1631923214531
13:59:52.828 27.6 35.4 1.24983358 1 26.5 1.26853848 85.2422701956601
13:59:52.966 27.6 35.4 1.24988390 1 26.5 1.26853848 85.0304792609857
13:59:53.101 27.6 35.4 1.24992800 1 26.5 1.26853848 85.893461606971
13:59:53.235 27.6 35.4 1.24975014 1 26.5 1.26853848 85.3995585423027
13:59:53.373 27.6 35.4 1.24993264 1 26.5 1.26853848 85.5277701548733
13:59:53.519 27.6 35.4 1.24979102 1 26.5 1.26853848 84.6523267460465
13:59:56.447 27.6 35.4 1.25031508 1 26.0 1.2686565 85.0544192147971
13:59:56.594 27.6 35.4 1.24972808 1 26.0 1.2686565 85.0544192147971
13:59:56.741 27.6 35.4 1.24955822 1 26.0 1.2686565 85.5356397906377
13:59:56.894 27.6 35.4 1.24940718 1 26.0 1.2686565 85.4552353212983
13:59:57.54 27.6 35.4 1.24966514 1 26.0 1.2686565 85.0953856281866
13:59:57.209 27.6 35.4 1.24987924 1 26.0 1.2686565 84.8279452823145
13:59:57.367 27.6 35.4 1.25001920 1 26.5 1.2686565 85.0094303908912
13:59:57.525 27.6 35.4 1.25012780 1 26.5 1.2686565 84.5331044016468
13:59:57.681 27.6 35.4 1.24994838 1 26.5 1.2686565 85.376719901123
13:59:57.836 27.6 35.4 1.24993432 1 26.5 1.2686565 84.9631334415865
13:59:57.991 27.6 35.4 1.24989176 1 26.5 1.2686565 84.7862171651054
13:59:58.150 27.6 35.4 1.24985396 1 26.5 1.2686565 85.3194641916148
13:59:58.311 27.6 35.4 1.24989330 1 26.5 1.2686565 85.2162563986899
13:59:58.472 27.6 35.4 1.24995316 1 26.5 1.2686565 84.3824540479337
13:59:58.635 27.6 35.4 1.24994374 1 26.5 1.2686565 84.3824540479337
13:59:58.797 27.6 35.4 1.24994838 1 26.5 1.2686565 84.3824540479337
14:0:1.916 27.6 35.4 1.25036382 1 26.5 1.26869428 88.7081889072999
14:0:2.89 27.6 35.4 1.25035596 1 26.5 1.26869428 87.8120251301159
14:0:2.261 27.6 35.4 1.25034964 1 26.5 1.26869428 88.8746253686373
14:0:2.432 27.6 35.4 1.25031352 1 26.5 1.26869428 88.6877961795132
14:0:2.604 27.6 35.4 1.25034500 1 26.5 1.26869428 88.8185400295464
14:0:2.775 27.6 35.4 1.25032770 1 26.5 1.26869428 88.7047484168566
14:0:2.947 27.6 35.4 1.25027418 1 26.5 1.26869428 89.2546851697571
14:0:3.117 27.6 35.4 1.25030566 1 26.5 1.26869428 89.2546851697571
14:0:3.291 27.6 35.4 1.25031816 1 26.0 1.26869428 89.2546851697571
14:0:3.463 27.6 35.4 1.25026000 1 26.0 1.26869428 89.2546851697571
14:0:3.636 27.6 35.4 1.25026632 1 26.0 1.26869428 89.2546851697571
14:0:3.805 27.6 35.4 1.25017036 1 26.0 1.26869428 89.2546851697571
14:0:3.975 27.6 35.4 1.25028670 1 26.0 1.26869428 89.2546851697571
14:0:4.147 27.6 35.4 1.25023950 1 26.0 1.26869428 89.2546851697571
14:0:4.319 27.6 35.4 1.25023640 1 26.0 1.26869428 89.2054948712759
14:0:4.492 27.6 35.4 1.25016868 1 26.5 1.26869428 88.8444844889437
14:0:7.920 27.6 35.6 1.25055742 1 26.5 1.2688595 89.1163921301464
14:0:8.105 27.6 35.6 1.25048972 1 26.5 1.2688595 89.1163921301464
14:0:8.289 27.6 35.6 1.25050234 1 26.5 1.2688595 89.1163921301464
14:0:8.474 27.6 35.6 1.25045360 1 26.5 1.2688595 89.1163921301464
14:0:8.657 27.6 35.6 1.25033712 1 26.5 1.2688595 89.1163921301464
14:0:8.843 27.6 35.6 1.25040472 1 26.5 1.2688595 89.1163921301464
14:0:9.29 27.6 35.6 1.25037014 1 26.5 1.2688595 89.1163921301464
14:0:9.214 27.6 35.6 1.25043786 1 26.5 1.2688595 88.4928366329461
14:0:9.402 27.6 35.6 1.25037956 1 26.5 1.2688595 88.8491685589109
14:0:9.590 27.6 35.6 1.25020802 1 26.5 1.2688595 89.4725211706159
14:0:9.775 27.6 35.6 1.25031984 1 26.5 1.2688595 88.4022014833093
14:0:9.962 27.6 35.6 1.25035440 1 26.5 1.2688595 88.8663847542417
14:0:10.162 27.6 35.6 1.25023008 1 26.5 1.2688595 88.8223497898997
14:0:10.355 27.6 35.6 1.25030410 1 26.0 1.2688595 88.8749750310432
14:0:10.546 27.6 35.6 1.25026786 1 26.0 1.2688595 88.8675126576132
14:0:10.740 27.6 35.6 1.25020338 1 26.0 1.2688595 88.844158812048
14:0:10.934 27.6 35.6 1.25030720 1 26.0 1.2688595 88.892419283005
14:0:14.719 27.6 35.4 1.25086272 1 26.0 1.26889884 90.9908396549411
14:0:14.921 27.6 35.4 1.25076044 1 26.0 1.26889884 90.9908396549411
14:0:15.122 27.6 35.4 1.25073516 1 26.0 1.26889884 90.9908396549411
14:0:15.323 27.6 35.4 1.25076986 1 26.0 1.26889884 90.9908396549411
14:0:15.525 27.6 35.4 1.25078868 1 26.0 1.26889884 91.8323798717925
14:0:15.727 27.6 35.4 1.25078714 1 26.0 1.26889884 91.7630083291732
14:0:15.925 27.6 35.4 1.25069904 1 26.0 1.26889884 91.7556362988678
14:0:16.126 27.6 35.4 1.25075876 1 26.5 1.26889884 91.4165977733949
14:0:16.328 27.6 35.4 1.25066436 1 26.5 1.26889884 92.3122479001684
14:0:16.532 27.6 35.4 1.25057160 1 26.5 1.26889884 91.2091881799823
14:0:16.738 27.6 35.4 1.25056052 1 26.5 1.26889884 91.7036016648126
14:0:16.944 27.6 35.4 1.25060462 1 26.5 1.26889884 91.527011145509
14:0:17.172 27.6 35.4 1.25059200 1 26.5 1.26889884 91.4569570601311
14:0:17.388 27.6 35.4 1.25062192 1 26.5 1.26889884 91.9064852571738
14:0:17.603 27.6 35.4 1.25067390 1 26.0 1.26889884 91.4707761702798
14:0:17.817 27.6 35.4 1.25060772 1 26.0 1.26889884 92.1601855831076
14:0:18.30 27.6 35.4 1.25058412 1 26.0 1.26889884 92.4604052814966
14:0:22.219 27.5 35.6 1.25097596 1 26.0 1.26900268 91.0426927390988
14:0:22.445 27.5 35.6 1.25087058 1 26.0 1.26900268 91.0426927390988
14:0:22.670 27.5 35.6 1.25090516 1 26.0 1.26900268 91.0426927390988
14:0:22.894 27.5 35.6 1.25077928 1 26.0 1.26900268 91.0426927390988
14:0:23.120 27.5 35.6 1.25085318 1 26.0 1.26900268 91.0426927390988
14:0:23.344 27.5 35.6 1.25090516 1 26.0 1.26900268 91.0426927390988
14:0:23.569 27.5 35.6 1.25075256 1 26.0 1.26900268 91.0426927390988
14:0:23.791 27.5 35.6 1.25078868 1 26.0 1.26900268 91.0426927390988
14:0:24.13 27.5 35.6 1.25066280 1 26.0 1.26900268 91.0426927390988
14:0:24.237 27.5 35.6 1.25067390 1 26.0 1.26900268 91.0426927390988
14:0:24.461 27.5 35.6 1.25068640 1 26.0 1.26900268 91.0426927390988
14:0:24.686 27.5 35.6 1.25074780 1 26.0 1.26900268 91.0426927390988
14:0:24.909 27.5 35.6 1.25081074 1 26.0 1.26900268 91.0426927390988
14:0:25.132 27.5 35.6 1.25065648 1 26.0 1.26900268 91.6243212605913
14:0:25.357 27.5 35.6 1.25072420 1 26.0 1.26900268 92.2932440431014
14:0:25.583 27.5 35.6 1.25062502 1 26.0 1.26900268 92.0172911541452
14:0:30.110 27.6 35.8 1.25076198 1 26.5 1.26904524 93.2711617756176
14:0:30.355 27.6 35.8 1.25080598 1 26.5 1.26904524 92.225931642941
14:0:30.600 27.6 35.8 1.25090360 1 26.5 1.26904524 92.930382253666
14:0:30.850 27.6 35.8 1.25081552 1 26.5 1.26904524 93.2954342027887
14:0:31.96 27.6 35.8 1.25066912 1 26.5 1.26904524 92.9245506141668
14:0:31.348 27.6 35.8 1.25072730 1 26.5 1.26904524 93.198837205079
14:0:31.596 27.6 35.8 1.25077296 1 26.0 1.26904524 94.6379931974813
14:0:31.840 27.6 35.8 1.25069272 1 26.0 1.26904524 94.1309422111465
14:0:32.96 27.6 35.8 1.25058734 1 26.0 1.26904524 93.8829329382552
14:0:32.351 27.6 35.8 1.25059200 1 26.0 1.26904524 93.665710572374
14:0:32.604 27.6 35.8 1.25065338 1 26.0 1.26904524 93.6159099650848
14:0:32.863 27.6 35.8 1.25064552 1 26.0 1.26904524 93.3015149989194
14:0:33.118 27.6 35.8 1.25065648 1 26.0 1.26904524 93.5949560860446
14:0:33.372 27.6 35.8 1.25064396 1 26.5 1.26904524 92.8288795688796
14:0:33.627 27.6 35.8 1.25068008 1 26.5 1.26904524 92.4655992402561
14:0:33.879 27.6 35.8 1.25069118 1 26.5 1.26904524 92.7373055009187
14:0:34.135 27.6 35.8 1.25055266 1 26.5 1.26904524 92.8994952368985
14:0:38.792 27.6 35.6 1.25065970 1 26.5 1.26920258 92.7212783848405
14:0:39.54 27.6 35.6 1.25076830 1 26.0 1.26920258 92.7212783848405
14:0:39.317 27.6 35.6 1.25079810 1 26.0 1.26920258 92.7212783848405
14:0:39.576 27.6 35.6 1.25079024 1 26.0 1.26920258 92.7212783848405
14:0:39.837 27.6 35.6 1.25068640 1 26.0 1.26920258 92.7212783848405
14:0:40.95 27.6 35.6 1.25073206 1 26.0 1.26920258 92.7212783848405
14:0:40.355 27.6 35.6 1.25087524 1 26.0 1.26920258 92.7212783848405
14:0:40.616 27.6 35.6 1.25087678 1 26.0 1.26920258 92.7212783848405
14:0:40.877 27.6 35.6 1.25073516 1 26.0 1.26920258 92.7212783848405
14:0:41.137 27.6 35.6 1.25073994 1 26.0 1.26920258 92.7212783848405
14:0:41.396 27.6 35.6 1.25072264 1 26.0 1.26920258 92.7212783848405
14:0:41.655 27.6 35.6 1.25063610 1 26.0 1.26920258 92.7212783848405
14:0:41.913 27.6 35.6 1.25064074 1 26.0 1.26920258 93.0935921376422
14:0:42.176 27.6 35.6 1.25066912 1 26.0 1.26920258 93.2380182310607
14:0:42.438 27.6 35.6 1.25071788 1 26.0 1.26920258 92.9392301958905
14:0:42.701 27.6 35.6 1.25065338 1 26.5 1.26920258 92.7931529434102
14:0:42.965 27.6 35.6 1.25070060 1 26.5 1.26920258 93.1850470015455
14:0:48.98 27.6 35.4 1.25062668 1 26.0 1.26926708 95.0674894725981
14:0:48.380 27.6 35.4 1.25056994 1 26.0 1.26926708 95.6821534043083
14:0:48.660 27.6 35.4 1.25046766 1 26.0 1.26926708 95.6821534043083
14:0:48.944 27.6 35.4 1.25046146 1 26.0 1.26926708 95.8072686413915
14:0:49.229 27.6 35.4 1.25042212 1 26.0 1.26926708 96.0202435962115
14:0:49.514 27.6 35.4 1.25041258 1 26.0 1.26926708 96.0303881091187
14:0:49.796 27.6 35.4 1.25040162 1 26.0 1.26926708 96.9350922384142
14:0:50.79 27.6 35.4 1.25046766 1 26.0 1.26926708 95.9520885522163
14:0:50.365 27.6 35.4 1.25044250 1 26.0 1.26926708 95.9536010263613
14:0:50.652 27.6 35.4 1.25043464 1 26.5 1.26926708 95.666895382313
14:0:50.935 27.6 35.4 1.25039684 1 26.5 1.26926708 94.9893619744781
14:0:51.219 27.6 35.4 1.25035286 1 26.5 1.26926708 95.7070501093739
14:0:51.506 27.6 35.4 1.25046932 1 26.5 1.26926708 95.2174495221696
14:0:51.791 27.6 35.4 1.25036072 1 26.5 1.26926708 95.5558979365035
14:0:52.78 27.6 35.4 1.25042046 1 26.5 1.26926708 96.492693774002
14:0:52.364 27.6 35.4 1.25031198 1 26.5 1.26926708 95.8926745434837
14:0:58.220 27.6 35.4 1.25059832 1 26.5 1.26933312 96.2183279153912
14:0:58.518 27.6 35.4 1.25073838 1 26.5 1.26933312 96.2002445788319
14:0:58.818 27.6 35.4 1.25042522 1 26.5 1.26933312 95.0862876743778
14:0:59.117 27.6 35.4 1.25063134 1 26.5 1.26933312 95.7017427014599
14:0:59.420 27.6 35.4 1.25047242 1 26.5 1.26933312 95.3613706351525
14:0:59.720 27.6 35.4 1.25051176 1 26.5 1.26933312 96.0002767486435
14:1:0.18 27.6 35.4 1.25046300 1 26.0 1.26933312 96.1735363938831
14:1:0.324 27.6 35.4 1.25039852 1 26.0 1.26933312 93.7595644644912
14:1:0.628 27.6 35.4 1.25045192 1 26.0 1.26933312 95.5519258679651
14:1:0.933 27.6 35.4 1.25052118 1 26.0 1.26933312 97.9547885301678
14:1:1.235 27.6 35.4 1.25046146 1 26.0 1.26933312 98.5725905437965
14:1:1.544 27.6 35.4 1.25052596 1 26.0 1.26933312 98.6581214523642
14:1:1.845 27.6 35.4 1.25040006 1 26.0 1.26933312 99.0535358630462
14:1:2.149 27.6 35.4 1.25042998 1 26.0 1.26933312 98.203882100158
14:1:2.454 27.6 35.4 1.25043940 1 26.0 1.26933312 98.0508847123909
14:1:2.757 27.6 35.4 1.25044406 1 26.0 1.26933312 97.2466209802853
14:1:8.578 27.7 35.3 1.24823796 1 26.0 1.26944328 97.0933882772756
14:1:8.938 27.7 35.3 1.24822068 1 26.0 1.26944328 97.0933882772756
14:1:9.247 27.7 35.3 1.24829304 1 26.0 1.26944328 97.0933882772756
14:1:9.557 27.7 35.3 1.24819386 1 26.0 1.26944328 97.0933882772756
14:1:9.865 27.7 35.3 1.24823952 1 26.0 1.26944328 97.0933882772756
14:1:10.294 27.7 35.3 1.24827098 1 26.0 1.26944328 96.2802490404845
14:1:10.809 27.7 35.3 1.24823952 1 26.0 1.26944328 96.2983474897371
14:1:11.360 27.7 35.3 1.24819076 1 26.0 1.26944328 96.7886984777508
14:1:11.961 27.7 35.3 1.24829304 1 26.0 1.26944328 97.815627914456
14:1:12.568 27.7 35.3 1.24812472 1 26.0 1.26944328 98.8899280735175
14:1:13.186 27.7 35.3 1.24818134 1 26.0 1.26944328 97.7488969960069
14:1:13.830 27.7 35.3 1.24811518 1 26.0 1.26944328 96.2608456072577
14:1:14.355 27.7 35.3 1.24808538 1 26.0 1.26944328 96.5101005000438
14:1:14.846 27.7 35.3 1.24806964 1 26.0 1.26944328 96.1744821059149
14:1:15.340 27.7 35.3 1.24816084 1 26.0 1.26944328 96.8102087803014
14:1:15.795 27.7 35.3 1.24815298 1 26.5 1.26944328 97.5251054471962
14:1:21.916 27.7 35.4 1.24839378 1 26.5 1.26957392 97.4750715368405
14:1:22.238 27.7 35.4 1.24839378 1 26.5 1.26957392 97.6628021188462
14:1:22.564 27.7 35.4 1.24843466 1 26.5 1.26957392 96.9206712012642
14:1:22.925 27.7 35.4 1.24831510 1 26.5 1.26957392 97.5099787442219
14:1:23.253 27.7 35.4 1.24834024 1 26.5 1.26957392 97.5046367521776
14:1:23.608 27.7 35.4 1.24835122 1 26.5 1.26957392 96.9969543657192
14:1:23.931 27.7 35.4 1.24831974 1 26.0 1.26957392 96.6392388561234
14:1:24.257 27.7 35.4 1.24830568 1 26.0 1.26957392 96.8383984191738
14:1:24.583 27.7 35.4 1.24826158 1 26.0 1.26957392 97.304988675292
14:1:24.910 27.7 35.4 1.24823486 1 26.0 1.26957392 97.244957055908
14:1:25.238 27.7 35.4 1.24831974 1 26.0 1.26957392 97.2161049156894
14:1:25.567 27.7 35.4 1.24834334 1 26.0 1.26957392 97.2604484337018
14:1:25.893 27.7 35.4 1.24824894 1 26.0 1.26957392 97.3302311160316
14:1:26.218 27.7 35.4 1.24824274 1 26.0 1.26957392 96.5405150218099
14:1:26.553 27.7 35.4 1.24820804 1 26.0 1.26957392 97.7022038524813
14:1:26.946 27.7 35.4 1.24830090 1 26.0 1.26957392 104.76981071947
14:1:27.289 27.7 35.4 1.24818922 1 26.0 1.26957392 101.501627820379
14:1:34.499 27.7 35.4 1.24927342 1 26.0 1.26961636 101.117124681929
14:1:34.844 27.7 35.4 1.24963366 1 26.0 1.26961636 101.286443768077
14:1:35.190 27.7 35.4 1.24973440 1 26.0 1.26961636 100.809720378801
14:1:35.534 27.7 35.4 1.24934732 1 26.0 1.26961636 100.793086138363
14:1:35.879 27.7 35.4 1.24910032 1 26.0 1.26961636 100.465987979789
14:1:36.219 27.7 35.4 1.24899018 1 26.0 1.26961636 100.465987979789
14:1:36.563 27.7 35.4 1.24902784 1 26.0 1.26961636 101.192499301645
14:1:36.905 27.7 35.4 1.24911284 1 26.0 1.26961636 101.700156215371
14:1:37.252 27.7 35.4 1.24926556 1 26.0 1.26961636 102.453494776773
14:1:37.599 27.7 35.4 1.24938036 1 26.0 1.26961636 102.386145773133
14:1:37.941 27.7 35.4 1.24940240 1 26.0 1.26961636 101.726882736705
14:1:38.290 27.7 35.4 1.24933792 1 26.0 1.26961636 100.2824456157
14:1:38.636 27.7 35.4 1.24916792 1 26.0 1.26961636 99.8323434033983
14:1:38.984 27.7 35.4 1.24916946 1 26.0 1.26961636 100.503437214895
14:1:39.330 27.7 35.4 1.24919630 1 26.0 1.26961636 100.379727924771
14:1:39.680 27.7 35.4 1.24917578 1 26.0 1.26961636 100.863027377414
14:1:46.423 27.7 35.9 1.24919630 1 26.5 1.26973438 102.647201472831
14:1:46.790 27.7 35.9 1.24916636 1 26.5 1.26973438 103.397122817683
14:1:47.152 27.7 35.9 1.24926388 1 26.5 1.26973438 104.792414329907
14:1:47.515 27.7 35.9 1.24930644 1 26.5 1.26973438 102.665292909387
14:1:47.877 27.7 35.9 1.24925292 1 26.5 1.26973438 101.617633124588
14:1:48.238 27.7 35.9 1.24928128 1 26.5 1.26973438 101.691096881307
14:1:48.608 27.7 35.9 1.24929858 1 26.5 1.26973438 103.955096812908
14:1:48.971 27.7 35.9 1.24931740 1 26.5 1.26973438 103.523839427337
14:1:49.337 27.7 35.9 1.24933792 1 26.5 1.26973438 104.874494114088
14:1:49.705 27.7 35.9 1.24931430 1 26.5 1.26973438 102.878027981341
14:1:50.64 27.7 35.9 1.24933792 1 26.5 1.26973438 102.267182225255
14:1:50.431 27.7 35.9 1.24941658 1 26.5 1.26973438 103.05728511067
14:1:50.795 27.7 35.9 1.24949682 1 26.5 1.26973438 103.082022131949
14:1:51.166 27.7 35.9 1.24941814 1 26.5 1.26973438 103.699560160953
14:1:51.533 27.7 35.9 1.24939608 1 26.5 1.26973438 104.260296347416
14:1:51.901 27.7 35.9 1.24937726 1 26.5 1.26973438 103.184902386692
14:1:52.269 27.7 35.9 1.24939930 1 26.5 1.26973438 103.706236047626
14:1:58.611 27.7 36.3 1.25287210 1 26.5 1.26989174 102.574501883501
14:1:58.989 27.7 36.3 1.25289572 1 26.5 1.26989174 103.126004742214
14:1:59.366 27.7 36.3 1.25291776 1 26.5 1.26989174 102.438086901714
14:1:59.744 27.7 36.3 1.25293660 1 26.5 1.26989174 102.815848631867
14:2:0.122 27.7 36.3 1.25297916 1 26.5 1.26989174 103.104640349501
14:2:0.500 27.7 36.3 1.25293982 1 26.5 1.26989174 102.552664988994
14:2:0.878 27.7 36.3 1.25296020 1 26.0 1.26989174 102.996432799743
14:2:1.261 27.7 36.3 1.25305152 1 26.0 1.26989174 102.996432799743
14:2:1.639 27.7 36.3 1.25300896 1 26.0 1.26989174 102.996432799743
14:2:2.14 27.7 36.3 1.25302004 1 26.0 1.26989174 102.996432799743
14:2:2.393 27.7 36.3 1.25303256 1 26.0 1.26989174 102.996432799743
14:2:2.771 27.7 36.3 1.25314272 1 26.0 1.26989174 102.996432799743
14:2:3.147 27.7 36.3 1.25305616 1 26.0 1.26989174 102.996432799743
14:2:3.527 27.7 36.3 1.25310028 1 26.5 1.26989174 102.996432799743
14:2:3.902 27.7 36.3 1.25314116 1 26.5 1.26989174 102.996432799743
14:2:4.280 27.7 36.3 1.25305616 1 26.5 1.26989174 102.996432799743
14:2:4.658 27.7 36.3 1.25314116 1 26.5 1.26989174 102.996432799743
14:2:12.278 27.8 35.8 1.25290834 1 26.5 1.26999402 103.761697356379
14:2:12.664 27.8 35.8 1.25302160 1 26.5 1.26999402 103.29778400714
14:2:13.53 27.8 35.8 1.25300742 1 26.5 1.26999402 102.486447460025
14:2:13.440 27.8 35.8 1.25303256 1 26.5 1.26999402 102.960456929765
14:2:13.826 27.8 35.8 1.25301682 1 26.5 1.26999402 103.161101696745
14:2:14.220 27.8 35.8 1.25304676 1 26.5 1.26999402 103.300442640056
14:2:14.608 27.8 35.8 1.25307512 1 26.0 1.26999402 103.341477277012
14:2:14.998 27.8 35.8 1.25307512 1 26.0 1.26999402 103.435423844678
14:2:15.387 27.8 35.8 1.25303734 1 26.0 1.26999402 103.006360565877
14:2:15.780 27.8 35.8 1.25300586 1 26.0 1.26999402 103.065488487507
14:2:16.165 27.8 35.8 1.25308300 1 26.0 1.26999402 103.057248323208
14:2:16.555 27.8 35.8 1.25305938 1 26.0 1.26999402 103.325444062294
14:2:16.942 27.8 35.8 1.25304830 1 26.0 1.26999402 103.404048571213
14:2:17.333 27.8 35.8 1.25308610 1 26.0 1.26999402 102.887370474221
14:2:17.722 27.8 35.8 1.25297750 1 26.0 1.26999402 102.975859879391
14:2:25.669 27.8 35.8 1.25302004 1 26.0 1.27000034 107.139713503838
14:2:26.69 27.8 35.8 1.25307190 1 26.5 1.27000034 106.758711573409
14:2:26.475 27.8 35.8 1.25309086 1 26.5 1.27000034 104.935439247748
14:2:26.881 27.8 35.8 1.25318372 1 26.5 1.27000034 104.416651059737
14:2:27.284 27.8 35.8 1.25317108 1 26.5 1.27000034 104.506254991341
14:2:27.691 27.8 35.8 1.25321674 1 26.5 1.27000034 105.775155797557
14:2:28.89 27.8 35.8 1.25324190 1 26.5 1.27000034 105.956652365382
14:2:28.497 27.8 35.8 1.25324344 1 26.5 1.27000034 105.002128486462
14:2:28.903 27.8 35.8 1.25322772 1 26.5 1.27000034 104.999609914927
14:2:29.311 27.8 35.8 1.25320732 1 26.5 1.27000034 105.117359114173
14:2:29.714 27.8 35.8 1.25330008 1 26.5 1.27000034 106.714162415873
14:2:30.116 27.8 35.8 1.25323712 1 26.5 1.27000034 105.847929566776
14:2:30.521 27.8 35.8 1.25325764 1 26.5 1.27000034 107.585813102488
14:2:30.928 27.8 35.8 1.25333000 1 26.5 1.27000034 105.88348347186
14:2:31.337 27.8 35.8 1.25318992 1 26.5 1.27000034 105.250301392966
14:2:39.392 27.9 35.7 1.25316798 1 26.0 1.27009786 105.402373257881
14:2:39.828 27.9 35.7 1.25321198 1 26.0 1.27009786 105.220712727729
14:2:40.260 27.9 35.7 1.25319468 1 26.0 1.27009786 105.085850390964
14:2:40.697 27.9 35.7 1.25331748 1 26.0 1.27009786 106.726146420916
14:2:41.135 27.9 35.7 1.25323402 1 26.0 1.27009786 108.100879268583
14:2:41.577 27.9 35.7 1.25327968 1 26.0 1.27009786 106.499143444229
14:2:42.11 27.9 35.7 1.25334728 1 26.0 1.27009786 105.33971076811
14:2:42.450 27.9 35.7 1.25340558 1 26.5 1.27009786 111.076854429799
14:2:42.886 27.9 35.7 1.25336146 1 26.5 1.27009786 109.602689985488
14:2:43.329 27.9 35.7 1.25339448 1 26.5 1.27009786 108.099510995997
14:2:43.769 27.9 35.7 1.25336778 1 26.5 1.27009786 109.301032882983
14:2:44.206 27.9 35.7 1.25333154 1 26.5 1.27009786 108.837456992399
14:2:44.647 27.9 35.7 1.25331902 1 26.5 1.27009786 109.553727198584
14:2:45.87 27.9 35.7 1.25333000 1 26.5 1.27009786 108.748489873824
14:2:45.528 27.9 35.7 1.25343382 1 26.5 1.27009786 109.242668958954
14:2:45.965 27.9 35.7 1.25339448 1 26.5 1.27009786 108.306017537108
14:2:46.407 27.9 35.7 1.25342762 1 26.5 1.27009786 108.226166020063
14:2:46.854 27.9 35.7 1.25345278 1 26.5 1.27009786 108.941226726935
14:2:47.300 27.9 35.7 1.25340080 1 26.5 1.27009786 108.570455623336
14:2:56.271 28.1 35.8 1.25306248 1 26.5 1.2701844 108.95600591087
14:2:56.727 28.1 35.8 1.25314438 1 26.5 1.2701844 109.205430096691
14:2:57.183 28.1 35.8 1.25320566 1 26.5 1.2701844 108.58715126433
14:2:57.641 28.1 35.8 1.25311602 1 26.5 1.2701844 108.715096005997
14:2:58.91 28.1 35.8 1.25308930 1 26.5 1.2701844 108.41302067283
14:2:58.545 28.1 35.8 1.25299954 1 26.5 1.2701844 108.713354700082
14:2:59.0 28.1 35.8 1.25302004 1 26.0 1.2701844 109.301901064423
14:2:59.458 28.1 35.8 1.25311292 1 26.0 1.2701844 109.087113389584
14:2:59.910 28.1 35.8 1.25316954 1 26.0 1.2701844 108.926709097127
14:3:0.370 28.1 35.8 1.25318838 1 26.0 1.2701844 108.744243540225
14:3:0.823 28.1 35.8 1.25322306 1 26.0 1.2701844 109.899924136749
14:3:1.280 28.1 35.8 1.25321674 1 26.0 1.2701844 109.040812137034
14:3:1.736 28.1 35.8 1.25327814 1 26.0 1.2701844 108.594728849294
14:3:10.887 28.2 35.7 1.25320256 1 26.5 1.27025366 108.542187466459
14:3:11.347 28.2 35.7 1.25319160 1 26.5 1.27025366 109.01892137728
14:3:11.803 28.2 35.7 1.25314904 1 26.5 1.27025366 109.022808337196
14:3:12.260 28.2 35.7 1.25320256 1 26.5 1.27025366 108.460724494882
14:3:12.720 28.2 35.7 1.25321352 1 26.5 1.27025366 108.808545570969
14:3:13.177 28.2 35.7 1.25320566 1 26.5 1.27025366 108.601411564437
14:3:13.637 28.2 35.7 1.25321198 1 26.5 1.27025366 108.296767059304
14:3:14.85 28.2 35.7 1.25325764 1 26.5 1.27025366 108.745977392911
14:3:14.542 28.2 35.7 1.25337564 1 26.5 1.27025366 108.86761133329
14:3:15.4 28.2 35.7 1.25331270 1 26.5 1.27025366 108.534672626965
14:3:15.461 28.2 35.7 1.25331426 1 26.5 1.27025366 109.289957686463
14:3:15.918 28.2 35.7 1.25336146 1 26.5 1.27025366 109.370466301119
14:3:16.376 28.2 35.7 1.25328910 1 26.5 1.27025366 109.258138909102
14:3:16.837 28.2 35.7 1.25340080 1 26.5 1.27025366 108.791702542575
14:3:17.297 28.2 35.7 1.25334728 1 26.5 1.27025366 108.940471166897
14:3:17.760 28.2 35.7 1.25338042 1 26.5 1.27025366 108.171432900301
14:3:18.222 28.2 35.7 1.25333322 1 26.5 1.27025366 108.652024600422
14:3:28.120 28.2 35.3 1.25109398 1 26.5 1.2704047 112.210327915457
14:3:28.589 28.2 35.3 1.25104988 1 26.5 1.2704047 112.018811068595
14:3:29.64 28.2 35.3 1.25112546 1 26.5 1.2704047 112.959415075485
14:3:29.539 28.2 35.3 1.25102794 1 26.5 1.2704047 112.837139018904
14:3:30.6 28.2 35.3 1.25094926 1 26.5 1.2704047 112.14452663425
14:3:30.484 28.2 35.3 1.25099016 1 26.5 1.2704047 112.412766968772
14:3:30.956 28.2 35.3 1.25102628 1 26.5 1.2704047 112.143551679577
14:3:31.431 28.2 35.3 1.25109398 1 26.5 1.2704047 112.61815862955
14:3:31.901 28.2 35.3 1.25111758 1 26.5 1.2704047 111.745587959984
14:3:32.380 28.2 35.3 1.25111448 1 26.5 1.2704047 112.148346891836
14:3:32.853 28.2 35.3 1.25112390 1 26.5 1.2704047 111.885927197332
14:3:33.330 28.2 35.3 1.25118208 1 26.5 1.2704047 112.962550753134
14:3:33.804 28.2 35.3 1.25110030 1 26.5 1.2704047 112.477120987196
14:3:34.279 28.2 35.3 1.25111758 1 26.5 1.2704047 111.887774908146
14:3:44.292 28.3 35.1 1.25088310 1 26.5 1.27041734 115.226131834365
14:3:44.776 28.3 35.1 1.25090670 1 26.5 1.27041734 115.342112589852
14:3:45.262 28.3 35.1 1.25093662 1 26.5 1.27041734 115.165231395797
14:3:45.747 28.3 35.1 1.25097752 1 26.5 1.27041734 115.724665729818
14:3:46.226 28.3 35.1 1.25106252 1 26.5 1.27041734 115.532553368345
14:3:46.715 28.3 35.1 1.25094604 1 26.5 1.27041734 115.722844929956
14:3:47.214 28.3 35.1 1.25109876 1 26.5 1.27041734 115.261710865392
14:3:47.705 28.3 35.1 1.25110186 1 26.5 1.27041734 115.920022296571
14:3:48.189 28.3 35.1 1.25094760 1 26.5 1.27041734 115.280980810739
